(['/home/guydewinton/Documents/DevStuff/projects/watchbot/installer/installer.py'],
 ['/home/guydewinton/Documents/DevStuff/projects',
  '/home/guydewinton/.local/bin/envs/full_django_v2/bin',
  '/home/guydewinton/.local/bin/envs/full_django_v2/lib/python3.7/site-packages/sqlite3_api',
  '/home/guydewinton/Documents/DevStuff/projects/watchbot/installer',
  '/home/guydewinton/Documents/DevStuff/projects/watchbot/installer/package/spec'],
 ['sqlite3_api', 'codecs'],
 ['/home/guydewinton/.local/bin/envs/full_django_v2/lib/python3.7/site-packages/_pyinstaller_hooks_contrib/hooks/stdhooks',
  '/home/guydewinton/.local/bin/envs/full_django_v2/lib/python3.7/site-packages/_pyinstaller_hooks_contrib/hooks/stdhooks/__pycache__',
  '/home/guydewinton/.local/bin/envs/full_django_v2/lib/python3.7/site-packages/_pyinstaller_hooks_contrib/hooks/rthooks',
  '/home/guydewinton/.local/bin/envs/full_django_v2/lib/python3.7/site-packages/_pyinstaller_hooks_contrib/hooks/rthooks/__pycache__',
  '/home/guydewinton/.local/bin/envs/full_django_v2/lib/python3.7/site-packages/_pyinstaller_hooks_contrib/hooks'],
 [],
 [],
 False,
 False,
 '3.7.9 (default, Aug 31 2020, 12:42:55) \n[GCC 7.3.0]',
 [('installer',
   '/home/guydewinton/Documents/DevStuff/projects/watchbot/installer/installer.py',
   'PYSOURCE')],
 [('sqlite3_api',
   '/home/guydewinton/.local/bin/envs/full_django_v2/lib/python3.7/site-packages/sqlite3_api/__init__.py',
   'PYMODULE'),
  ('copy',
   '/home/guydewinton/.local/bin/envs/full_django_v2/lib/python3.7/copy.py',
   'PYMODULE'),
  ('typing',
   '/home/guydewinton/.local/bin/envs/full_django_v2/lib/python3.7/typing.py',
   'PYMODULE'),
  ('contextlib',
   '/home/guydewinton/.local/bin/envs/full_django_v2/lib/python3.7/contextlib.py',
   'PYMODULE'),
  ('_py_abc',
   '/home/guydewinton/.local/bin/envs/full_django_v2/lib/python3.7/_py_abc.py',
   'PYMODULE'),
  ('doctest',
   '/home/guydewinton/.local/bin/envs/full_django_v2/lib/python3.7/doctest.py',
   'PYMODULE'),
  ('argparse',
   '/home/guydewinton/.local/bin/envs/full_django_v2/lib/python3.7/argparse.py',
   'PYMODULE'),
  ('textwrap',
   '/home/guydewinton/.local/bin/envs/full_django_v2/lib/python3.7/textwrap.py',
   'PYMODULE'),
  ('gettext',
   '/home/guydewinton/.local/bin/envs/full_django_v2/lib/python3.7/gettext.py',
   'PYMODULE'),
  ('struct',
   '/home/guydewinton/.local/bin/envs/full_django_v2/lib/python3.7/struct.py',
   'PYMODULE'),
  ('unittest',
   '/home/guydewinton/.local/bin/envs/full_django_v2/lib/python3.7/unittest/__init__.py',
   'PYMODULE'),
  ('posixpath',
   '/home/guydewinton/.local/bin/envs/full_django_v2/lib/python3.7/posixpath.py',
   'PYMODULE'),
  ('genericpath',
   '/home/guydewinton/.local/bin/envs/full_django_v2/lib/python3.7/genericpath.py',
   'PYMODULE'),
  ('stat',
   '/home/guydewinton/.local/bin/envs/full_django_v2/lib/python3.7/stat.py',
   'PYMODULE'),
  ('unittest.signals',
   '/home/guydewinton/.local/bin/envs/full_django_v2/lib/python3.7/unittest/signals.py',
   'PYMODULE'),
  ('signal',
   '/home/guydewinton/.local/bin/envs/full_django_v2/lib/python3.7/signal.py',
   'PYMODULE'),
  ('unittest.main',
   '/home/guydewinton/.local/bin/envs/full_django_v2/lib/python3.7/unittest/main.py',
   'PYMODULE'),
  ('unittest.runner',
   '/home/guydewinton/.local/bin/envs/full_django_v2/lib/python3.7/unittest/runner.py',
   'PYMODULE'),
  ('_strptime',
   '/home/guydewinton/.local/bin/envs/full_django_v2/lib/python3.7/_strptime.py',
   'PYMODULE'),
  ('datetime',
   '/home/guydewinton/.local/bin/envs/full_django_v2/lib/python3.7/datetime.py',
   'PYMODULE'),
  ('calendar',
   '/home/guydewinton/.local/bin/envs/full_django_v2/lib/python3.7/calendar.py',
   'PYMODULE'),
  ('unittest.loader',
   '/home/guydewinton/.local/bin/envs/full_django_v2/lib/python3.7/unittest/loader.py',
   'PYMODULE'),
  ('fnmatch',
   '/home/guydewinton/.local/bin/envs/full_django_v2/lib/python3.7/fnmatch.py',
   'PYMODULE'),
  ('unittest.suite',
   '/home/guydewinton/.local/bin/envs/full_django_v2/lib/python3.7/unittest/suite.py',
   'PYMODULE'),
  ('unittest.case',
   '/home/guydewinton/.local/bin/envs/full_django_v2/lib/python3.7/unittest/case.py',
   'PYMODULE'),
  ('pprint',
   '/home/guydewinton/.local/bin/envs/full_django_v2/lib/python3.7/pprint.py',
   'PYMODULE'),
  ('logging',
   '/home/guydewinton/.local/bin/envs/full_django_v2/lib/python3.7/logging/__init__.py',
   'PYMODULE'),
  ('pickle',
   '/home/guydewinton/.local/bin/envs/full_django_v2/lib/python3.7/pickle.py',
   'PYMODULE'),
  ('_compat_pickle',
   '/home/guydewinton/.local/bin/envs/full_django_v2/lib/python3.7/_compat_pickle.py',
   'PYMODULE'),
  ('threading',
   '/home/guydewinton/.local/bin/envs/full_django_v2/lib/python3.7/threading.py',
   'PYMODULE'),
  ('_threading_local',
   '/home/guydewinton/.local/bin/envs/full_django_v2/lib/python3.7/_threading_local.py',
   'PYMODULE'),
  ('string',
   '/home/guydewinton/.local/bin/envs/full_django_v2/lib/python3.7/string.py',
   'PYMODULE'),
  ('unittest.result',
   '/home/guydewinton/.local/bin/envs/full_django_v2/lib/python3.7/unittest/result.py',
   'PYMODULE'),
  ('unittest.util',
   '/home/guydewinton/.local/bin/envs/full_django_v2/lib/python3.7/unittest/util.py',
   'PYMODULE'),
  ('pdb',
   '/home/guydewinton/.local/bin/envs/full_django_v2/lib/python3.7/pdb.py',
   'PYMODULE'),
  ('getopt',
   '/home/guydewinton/.local/bin/envs/full_django_v2/lib/python3.7/getopt.py',
   'PYMODULE'),
  ('pydoc',
   '/home/guydewinton/.local/bin/envs/full_django_v2/lib/python3.7/pydoc.py',
   'PYMODULE'),
  ('webbrowser',
   '/home/guydewinton/.local/bin/envs/full_django_v2/lib/python3.7/webbrowser.py',
   'PYMODULE'),
  ('socket',
   '/home/guydewinton/.local/bin/envs/full_django_v2/lib/python3.7/socket.py',
   'PYMODULE'),
  ('selectors',
   '/home/guydewinton/.local/bin/envs/full_django_v2/lib/python3.7/selectors.py',
   'PYMODULE'),
  ('email.message',
   '/home/guydewinton/.local/bin/envs/full_django_v2/lib/python3.7/email/message.py',
   'PYMODULE'),
  ('email.policy',
   '/home/guydewinton/.local/bin/envs/full_django_v2/lib/python3.7/email/policy.py',
   'PYMODULE'),
  ('email.contentmanager',
   '/home/guydewinton/.local/bin/envs/full_django_v2/lib/python3.7/email/contentmanager.py',
   'PYMODULE'),
  ('email.quoprimime',
   '/home/guydewinton/.local/bin/envs/full_django_v2/lib/python3.7/email/quoprimime.py',
   'PYMODULE'),
  ('email.headerregistry',
   '/home/guydewinton/.local/bin/envs/full_django_v2/lib/python3.7/email/headerregistry.py',
   'PYMODULE'),
  ('email._header_value_parser',
   '/home/guydewinton/.local/bin/envs/full_django_v2/lib/python3.7/email/_header_value_parser.py',
   'PYMODULE'),
  ('urllib',
   '/home/guydewinton/.local/bin/envs/full_django_v2/lib/python3.7/urllib/__init__.py',
   'PYMODULE'),
  ('email.iterators',
   '/home/guydewinton/.local/bin/envs/full_django_v2/lib/python3.7/email/iterators.py',
   'PYMODULE'),
  ('email.generator',
   '/home/guydewinton/.local/bin/envs/full_django_v2/lib/python3.7/email/generator.py',
   'PYMODULE'),
  ('random',
   '/home/guydewinton/.local/bin/envs/full_django_v2/lib/python3.7/random.py',
   'PYMODULE'),
  ('bisect',
   '/home/guydewinton/.local/bin/envs/full_django_v2/lib/python3.7/bisect.py',
   'PYMODULE'),
  ('hashlib',
   '/home/guydewinton/.local/bin/envs/full_django_v2/lib/python3.7/hashlib.py',
   'PYMODULE'),
  ('email._encoded_words',
   '/home/guydewinton/.local/bin/envs/full_django_v2/lib/python3.7/email/_encoded_words.py',
   'PYMODULE'),
  ('base64',
   '/home/guydewinton/.local/bin/envs/full_django_v2/lib/python3.7/base64.py',
   'PYMODULE'),
  ('email.charset',
   '/home/guydewinton/.local/bin/envs/full_django_v2/lib/python3.7/email/charset.py',
   'PYMODULE'),
  ('email.encoders',
   '/home/guydewinton/.local/bin/envs/full_django_v2/lib/python3.7/email/encoders.py',
   'PYMODULE'),
  ('email.base64mime',
   '/home/guydewinton/.local/bin/envs/full_django_v2/lib/python3.7/email/base64mime.py',
   'PYMODULE'),
  ('email._policybase',
   '/home/guydewinton/.local/bin/envs/full_django_v2/lib/python3.7/email/_policybase.py',
   'PYMODULE'),
  ('email.header',
   '/home/guydewinton/.local/bin/envs/full_django_v2/lib/python3.7/email/header.py',
   'PYMODULE'),
  ('email.errors',
   '/home/guydewinton/.local/bin/envs/full_django_v2/lib/python3.7/email/errors.py',
   'PYMODULE'),
  ('email.utils',
   '/home/guydewinton/.local/bin/envs/full_django_v2/lib/python3.7/email/utils.py',
   'PYMODULE'),
  ('email._parseaddr',
   '/home/guydewinton/.local/bin/envs/full_django_v2/lib/python3.7/email/_parseaddr.py',
   'PYMODULE'),
  ('email',
   '/home/guydewinton/.local/bin/envs/full_django_v2/lib/python3.7/email/__init__.py',
   'PYMODULE'),
  ('email.parser',
   '/home/guydewinton/.local/bin/envs/full_django_v2/lib/python3.7/email/parser.py',
   'PYMODULE'),
  ('email.feedparser',
   '/home/guydewinton/.local/bin/envs/full_django_v2/lib/python3.7/email/feedparser.py',
   'PYMODULE'),
  ('quopri',
   '/home/guydewinton/.local/bin/envs/full_django_v2/lib/python3.7/quopri.py',
   'PYMODULE'),
  ('uu',
   '/home/guydewinton/.local/bin/envs/full_django_v2/lib/python3.7/uu.py',
   'PYMODULE'),
  ('optparse',
   '/home/guydewinton/.local/bin/envs/full_django_v2/lib/python3.7/optparse.py',
   'PYMODULE'),
  ('http.server',
   '/home/guydewinton/.local/bin/envs/full_django_v2/lib/python3.7/http/server.py',
   'PYMODULE'),
  ('http',
   '/home/guydewinton/.local/bin/envs/full_django_v2/lib/python3.7/http/__init__.py',
   'PYMODULE'),
  ('socketserver',
   '/home/guydewinton/.local/bin/envs/full_django_v2/lib/python3.7/socketserver.py',
   'PYMODULE'),
  ('mimetypes',
   '/home/guydewinton/.local/bin/envs/full_django_v2/lib/python3.7/mimetypes.py',
   'PYMODULE'),
  ('http.client',
   '/home/guydewinton/.local/bin/envs/full_django_v2/lib/python3.7/http/client.py',
   'PYMODULE'),
  ('ssl',
   '/home/guydewinton/.local/bin/envs/full_django_v2/lib/python3.7/ssl.py',
   'PYMODULE'),
  ('html',
   '/home/guydewinton/.local/bin/envs/full_django_v2/lib/python3.7/html/__init__.py',
   'PYMODULE'),
  ('html.entities',
   '/home/guydewinton/.local/bin/envs/full_django_v2/lib/python3.7/html/entities.py',
   'PYMODULE'),
  ('pydoc_data.topics',
   '/home/guydewinton/.local/bin/envs/full_django_v2/lib/python3.7/pydoc_data/topics.py',
   'PYMODULE'),
  ('pydoc_data',
   '/home/guydewinton/.local/bin/envs/full_django_v2/lib/python3.7/pydoc_data/__init__.py',
   'PYMODULE'),
  ('tty',
   '/home/guydewinton/.local/bin/envs/full_django_v2/lib/python3.7/tty.py',
   'PYMODULE'),
  ('subprocess',
   '/home/guydewinton/.local/bin/envs/full_django_v2/lib/python3.7/subprocess.py',
   'PYMODULE'),
  ('tempfile',
   '/home/guydewinton/.local/bin/envs/full_django_v2/lib/python3.7/tempfile.py',
   'PYMODULE'),
  ('urllib.parse',
   '/home/guydewinton/.local/bin/envs/full_django_v2/lib/python3.7/urllib/parse.py',
   'PYMODULE'),
  ('tokenize',
   '/home/guydewinton/.local/bin/envs/full_django_v2/lib/python3.7/tokenize.py',
   'PYMODULE'),
  ('token',
   '/home/guydewinton/.local/bin/envs/full_django_v2/lib/python3.7/token.py',
   'PYMODULE'),
  ('sysconfig',
   '/home/guydewinton/.local/bin/envs/full_django_v2/lib/python3.7/sysconfig.py',
   'PYMODULE'),
  ('_sysconfigdata_m_linux_x86_64-linux-gnu',
   '/home/guydewinton/.local/bin/envs/full_django_v2/lib/python3.7/_sysconfigdata_m_linux_x86_64-linux-gnu.py',
   'PYMODULE'),
  ('_osx_support',
   '/home/guydewinton/.local/bin/envs/full_django_v2/lib/python3.7/_osx_support.py',
   'PYMODULE'),
  ('distutils.log',
   '/home/guydewinton/.local/bin/envs/full_django_v2/lib/python3.7/distutils/log.py',
   'PYMODULE'),
  ('distutils',
   '/home/guydewinton/.local/bin/envs/full_django_v2/lib/python3.7/distutils/__init__.py',
   'PYMODULE'),
  ('platform',
   '/home/guydewinton/.local/bin/envs/full_django_v2/lib/python3.7/platform.py',
   'PYMODULE'),
  ('plistlib',
   '/home/guydewinton/.local/bin/envs/full_django_v2/lib/python3.7/plistlib.py',
   'PYMODULE'),
  ('xml.parsers.expat',
   '/home/guydewinton/.local/bin/envs/full_django_v2/lib/python3.7/xml/parsers/expat.py',
   'PYMODULE'),
  ('xml.parsers',
   '/home/guydewinton/.local/bin/envs/full_django_v2/lib/python3.7/xml/parsers/__init__.py',
   'PYMODULE'),
  ('xml',
   '/home/guydewinton/.local/bin/envs/full_django_v2/lib/python3.7/xml/__init__.py',
   'PYMODULE'),
  ('xml.sax.expatreader',
   '/home/guydewinton/.local/bin/envs/full_django_v2/lib/python3.7/xml/sax/expatreader.py',
   'PYMODULE'),
  ('xml.sax.saxutils',
   '/home/guydewinton/.local/bin/envs/full_django_v2/lib/python3.7/xml/sax/saxutils.py',
   'PYMODULE'),
  ('urllib.request',
   '/home/guydewinton/.local/bin/envs/full_django_v2/lib/python3.7/urllib/request.py',
   'PYMODULE'),
  ('getpass',
   '/home/guydewinton/.local/bin/envs/full_django_v2/lib/python3.7/getpass.py',
   'PYMODULE'),
  ('nturl2path',
   '/home/guydewinton/.local/bin/envs/full_django_v2/lib/python3.7/nturl2path.py',
   'PYMODULE'),
  ('ftplib',
   '/home/guydewinton/.local/bin/envs/full_django_v2/lib/python3.7/ftplib.py',
   'PYMODULE'),
  ('netrc',
   '/home/guydewinton/.local/bin/envs/full_django_v2/lib/python3.7/netrc.py',
   'PYMODULE'),
  ('http.cookiejar',
   '/home/guydewinton/.local/bin/envs/full_django_v2/lib/python3.7/http/cookiejar.py',
   'PYMODULE'),
  ('urllib.response',
   '/home/guydewinton/.local/bin/envs/full_django_v2/lib/python3.7/urllib/response.py',
   'PYMODULE'),
  ('urllib.error',
   '/home/guydewinton/.local/bin/envs/full_django_v2/lib/python3.7/urllib/error.py',
   'PYMODULE'),
  ('xml.sax',
   '/home/guydewinton/.local/bin/envs/full_django_v2/lib/python3.7/xml/sax/__init__.py',
   'PYMODULE'),
  ('xml.sax.handler',
   '/home/guydewinton/.local/bin/envs/full_django_v2/lib/python3.7/xml/sax/handler.py',
   'PYMODULE'),
  ('xml.sax._exceptions',
   '/home/guydewinton/.local/bin/envs/full_django_v2/lib/python3.7/xml/sax/_exceptions.py',
   'PYMODULE'),
  ('xml.sax.xmlreader',
   '/home/guydewinton/.local/bin/envs/full_django_v2/lib/python3.7/xml/sax/xmlreader.py',
   'PYMODULE'),
  ('pkgutil',
   '/home/guydewinton/.local/bin/envs/full_django_v2/lib/python3.7/pkgutil.py',
   'PYMODULE'),
  ('importlib',
   '/home/guydewinton/.local/bin/envs/full_django_v2/lib/python3.7/importlib/__init__.py',
   'PYMODULE'),
  ('importlib.abc',
   '/home/guydewinton/.local/bin/envs/full_django_v2/lib/python3.7/importlib/abc.py',
   'PYMODULE'),
  ('importlib.util',
   '/home/guydewinton/.local/bin/envs/full_django_v2/lib/python3.7/importlib/util.py',
   'PYMODULE'),
  ('importlib.machinery',
   '/home/guydewinton/.local/bin/envs/full_django_v2/lib/python3.7/importlib/machinery.py',
   'PYMODULE'),
  ('importlib._bootstrap_external',
   '/home/guydewinton/.local/bin/envs/full_django_v2/lib/python3.7/importlib/_bootstrap_external.py',
   'PYMODULE'),
  ('importlib._bootstrap',
   '/home/guydewinton/.local/bin/envs/full_django_v2/lib/python3.7/importlib/_bootstrap.py',
   'PYMODULE'),
  ('runpy',
   '/home/guydewinton/.local/bin/envs/full_django_v2/lib/python3.7/runpy.py',
   'PYMODULE'),
  ('shlex',
   '/home/guydewinton/.local/bin/envs/full_django_v2/lib/python3.7/shlex.py',
   'PYMODULE'),
  ('glob',
   '/home/guydewinton/.local/bin/envs/full_django_v2/lib/python3.7/glob.py',
   'PYMODULE'),
  ('code',
   '/home/guydewinton/.local/bin/envs/full_django_v2/lib/python3.7/code.py',
   'PYMODULE'),
  ('codeop',
   '/home/guydewinton/.local/bin/envs/full_django_v2/lib/python3.7/codeop.py',
   'PYMODULE'),
  ('dis',
   '/home/guydewinton/.local/bin/envs/full_django_v2/lib/python3.7/dis.py',
   'PYMODULE'),
  ('opcode',
   '/home/guydewinton/.local/bin/envs/full_django_v2/lib/python3.7/opcode.py',
   'PYMODULE'),
  ('bdb',
   '/home/guydewinton/.local/bin/envs/full_django_v2/lib/python3.7/bdb.py',
   'PYMODULE'),
  ('cmd',
   '/home/guydewinton/.local/bin/envs/full_django_v2/lib/python3.7/cmd.py',
   'PYMODULE'),
  ('inspect',
   '/home/guydewinton/.local/bin/envs/full_django_v2/lib/python3.7/inspect.py',
   'PYMODULE'),
  ('ast',
   '/home/guydewinton/.local/bin/envs/full_django_v2/lib/python3.7/ast.py',
   'PYMODULE'),
  ('difflib',
   '/home/guydewinton/.local/bin/envs/full_django_v2/lib/python3.7/difflib.py',
   'PYMODULE'),
  ('__future__',
   '/home/guydewinton/.local/bin/envs/full_django_v2/lib/python3.7/__future__.py',
   'PYMODULE'),
  ('tracemalloc',
   '/home/guydewinton/.local/bin/envs/full_django_v2/lib/python3.7/tracemalloc.py',
   'PYMODULE'),
  ('stringprep',
   '/home/guydewinton/.local/bin/envs/full_django_v2/lib/python3.7/stringprep.py',
   'PYMODULE'),
  ('bz2',
   '/home/guydewinton/.local/bin/envs/full_django_v2/lib/python3.7/bz2.py',
   'PYMODULE'),
  ('_compression',
   '/home/guydewinton/.local/bin/envs/full_django_v2/lib/python3.7/_compression.py',
   'PYMODULE'),
  ('lib.db_schema',
   '/home/guydewinton/Documents/DevStuff/projects/watchbot/installer/lib/db_schema.py',
   'PYMODULE'),
  ('lib.config',
   '/home/guydewinton/Documents/DevStuff/projects/watchbot/installer/lib/config.py',
   'PYMODULE'),
  ('lib',
   '/home/guydewinton/Documents/DevStuff/projects/watchbot/installer/lib/__init__.py',
   'PYMODULE'),
  ('uninstaller',
   '/home/guydewinton/Documents/DevStuff/projects/watchbot/installer/uninstaller.py',
   'PYMODULE'),
  ('sqlite3_api.base_class',
   '/home/guydewinton/.local/bin/envs/full_django_v2/lib/python3.7/site-packages/sqlite3_api/base_class.py',
   'PYMODULE'),
  ('constants.constants',
   '/home/guydewinton/.local/bin/envs/full_django_v2/lib/python3.7/site-packages/sqlite3_api/constants/constants.py',
   'PYMODULE'),
  ('constants',
   '/home/guydewinton/.local/bin/envs/full_django_v2/lib/python3.7/site-packages/sqlite3_api/constants/__init__.py',
   'PYMODULE'),
  ('query.query_factory',
   '/home/guydewinton/.local/bin/envs/full_django_v2/lib/python3.7/site-packages/sqlite3_api/query/query_factory.py',
   'PYMODULE'),
  ('sqlite3_api.api.sqlite_api',
   '/home/guydewinton/.local/bin/envs/full_django_v2/lib/python3.7/site-packages/sqlite3_api/api/sqlite_api.py',
   'PYMODULE'),
  ('sqlite3_api.api',
   '/home/guydewinton/.local/bin/envs/full_django_v2/lib/python3.7/site-packages/sqlite3_api/api/__init__.py',
   'PYMODULE'),
  ('sqlite3',
   '/home/guydewinton/.local/bin/envs/full_django_v2/lib/python3.7/sqlite3/__init__.py',
   'PYMODULE'),
  ('sqlite3.dump',
   '/home/guydewinton/.local/bin/envs/full_django_v2/lib/python3.7/sqlite3/dump.py',
   'PYMODULE'),
  ('sqlite3.dbapi2',
   '/home/guydewinton/.local/bin/envs/full_django_v2/lib/python3.7/sqlite3/dbapi2.py',
   'PYMODULE'),
  ('query.query_strings',
   '/home/guydewinton/.local/bin/envs/full_django_v2/lib/python3.7/site-packages/sqlite3_api/query/query_strings.py',
   'PYMODULE'),
  ('query',
   '/home/guydewinton/.local/bin/envs/full_django_v2/lib/python3.7/site-packages/sqlite3_api/query/__init__.py',
   'PYMODULE'),
  ('helpers.helpers',
   '/home/guydewinton/.local/bin/envs/full_django_v2/lib/python3.7/site-packages/sqlite3_api/helpers/helpers.py',
   'PYMODULE'),
  ('helpers',
   '/home/guydewinton/.local/bin/envs/full_django_v2/lib/python3.7/site-packages/sqlite3_api/helpers/__init__.py',
   'PYMODULE'),
  ('uuid',
   '/home/guydewinton/.local/bin/envs/full_django_v2/lib/python3.7/uuid.py',
   'PYMODULE'),
  ('ctypes.util',
   '/home/guydewinton/.local/bin/envs/full_django_v2/lib/python3.7/ctypes/util.py',
   'PYMODULE'),
  ('ctypes._aix',
   '/home/guydewinton/.local/bin/envs/full_django_v2/lib/python3.7/ctypes/_aix.py',
   'PYMODULE'),
  ('ctypes.macholib.dyld',
   '/home/guydewinton/.local/bin/envs/full_django_v2/lib/python3.7/ctypes/macholib/dyld.py',
   'PYMODULE'),
  ('ctypes.macholib',
   '/home/guydewinton/.local/bin/envs/full_django_v2/lib/python3.7/ctypes/macholib/__init__.py',
   'PYMODULE'),
  ('ctypes.macholib.dylib',
   '/home/guydewinton/.local/bin/envs/full_django_v2/lib/python3.7/ctypes/macholib/dylib.py',
   'PYMODULE'),
  ('ctypes.macholib.framework',
   '/home/guydewinton/.local/bin/envs/full_django_v2/lib/python3.7/ctypes/macholib/framework.py',
   'PYMODULE'),
  ('ctypes',
   '/home/guydewinton/.local/bin/envs/full_django_v2/lib/python3.7/ctypes/__init__.py',
   'PYMODULE'),
  ('ctypes._endian',
   '/home/guydewinton/.local/bin/envs/full_django_v2/lib/python3.7/ctypes/_endian.py',
   'PYMODULE'),
  ('json',
   '/home/guydewinton/.local/bin/envs/full_django_v2/lib/python3.7/json/__init__.py',
   'PYMODULE'),
  ('json.encoder',
   '/home/guydewinton/.local/bin/envs/full_django_v2/lib/python3.7/json/encoder.py',
   'PYMODULE'),
  ('json.decoder',
   '/home/guydewinton/.local/bin/envs/full_django_v2/lib/python3.7/json/decoder.py',
   'PYMODULE'),
  ('json.scanner',
   '/home/guydewinton/.local/bin/envs/full_django_v2/lib/python3.7/json/scanner.py',
   'PYMODULE'),
  ('shutil',
   '/home/guydewinton/.local/bin/envs/full_django_v2/lib/python3.7/shutil.py',
   'PYMODULE'),
  ('zipfile',
   '/home/guydewinton/.local/bin/envs/full_django_v2/lib/python3.7/zipfile.py',
   'PYMODULE'),
  ('py_compile',
   '/home/guydewinton/.local/bin/envs/full_django_v2/lib/python3.7/py_compile.py',
   'PYMODULE'),
  ('tarfile',
   '/home/guydewinton/.local/bin/envs/full_django_v2/lib/python3.7/tarfile.py',
   'PYMODULE'),
  ('gzip',
   '/home/guydewinton/.local/bin/envs/full_django_v2/lib/python3.7/gzip.py',
   'PYMODULE'),
  ('lzma',
   '/home/guydewinton/.local/bin/envs/full_django_v2/lib/python3.7/lzma.py',
   'PYMODULE'),
  ('os',
   '/home/guydewinton/.local/bin/envs/full_django_v2/lib/python3.7/os.py',
   'PYMODULE'),
  ('ntpath',
   '/home/guydewinton/.local/bin/envs/full_django_v2/lib/python3.7/ntpath.py',
   'PYMODULE')],
 [('_struct',
   '/home/guydewinton/.local/bin/envs/full_django_v2/lib/python3.7/lib-dynload/_struct.cpython-37m-x86_64-linux-gnu.so',
   'EXTENSION'),
  ('_datetime',
   '/home/guydewinton/.local/bin/envs/full_django_v2/lib/python3.7/lib-dynload/_datetime.cpython-37m-x86_64-linux-gnu.so',
   'EXTENSION'),
  ('math',
   '/home/guydewinton/.local/bin/envs/full_django_v2/lib/python3.7/lib-dynload/math.cpython-37m-x86_64-linux-gnu.so',
   'EXTENSION'),
  ('_pickle',
   '/home/guydewinton/.local/bin/envs/full_django_v2/lib/python3.7/lib-dynload/_pickle.cpython-37m-x86_64-linux-gnu.so',
   'EXTENSION'),
  ('_socket',
   '/home/guydewinton/.local/bin/envs/full_django_v2/lib/python3.7/lib-dynload/_socket.cpython-37m-x86_64-linux-gnu.so',
   'EXTENSION'),
  ('select',
   '/home/guydewinton/.local/bin/envs/full_django_v2/lib/python3.7/lib-dynload/select.cpython-37m-x86_64-linux-gnu.so',
   'EXTENSION'),
  ('binascii',
   '/home/guydewinton/.local/bin/envs/full_django_v2/lib/python3.7/lib-dynload/binascii.cpython-37m-x86_64-linux-gnu.so',
   'EXTENSION'),
  ('_random',
   '/home/guydewinton/.local/bin/envs/full_django_v2/lib/python3.7/lib-dynload/_random.cpython-37m-x86_64-linux-gnu.so',
   'EXTENSION'),
  ('_bisect',
   '/home/guydewinton/.local/bin/envs/full_django_v2/lib/python3.7/lib-dynload/_bisect.cpython-37m-x86_64-linux-gnu.so',
   'EXTENSION'),
  ('_hashlib',
   '/home/guydewinton/.local/bin/envs/full_django_v2/lib/python3.7/lib-dynload/_hashlib.cpython-37m-x86_64-linux-gnu.so',
   'EXTENSION'),
  ('_sha3',
   '/home/guydewinton/.local/bin/envs/full_django_v2/lib/python3.7/lib-dynload/_sha3.cpython-37m-x86_64-linux-gnu.so',
   'EXTENSION'),
  ('_blake2',
   '/home/guydewinton/.local/bin/envs/full_django_v2/lib/python3.7/lib-dynload/_blake2.cpython-37m-x86_64-linux-gnu.so',
   'EXTENSION'),
  ('_sha512',
   '/home/guydewinton/.local/bin/envs/full_django_v2/lib/python3.7/lib-dynload/_sha512.cpython-37m-x86_64-linux-gnu.so',
   'EXTENSION'),
  ('_sha256',
   '/home/guydewinton/.local/bin/envs/full_django_v2/lib/python3.7/lib-dynload/_sha256.cpython-37m-x86_64-linux-gnu.so',
   'EXTENSION'),
  ('_md5',
   '/home/guydewinton/.local/bin/envs/full_django_v2/lib/python3.7/lib-dynload/_md5.cpython-37m-x86_64-linux-gnu.so',
   'EXTENSION'),
  ('_sha1',
   '/home/guydewinton/.local/bin/envs/full_django_v2/lib/python3.7/lib-dynload/_sha1.cpython-37m-x86_64-linux-gnu.so',
   'EXTENSION'),
  ('_ssl',
   '/home/guydewinton/.local/bin/envs/full_django_v2/lib/python3.7/lib-dynload/_ssl.cpython-37m-x86_64-linux-gnu.so',
   'EXTENSION'),
  ('termios',
   '/home/guydewinton/.local/bin/envs/full_django_v2/lib/python3.7/lib-dynload/termios.cpython-37m-x86_64-linux-gnu.so',
   'EXTENSION'),
  ('_posixsubprocess',
   '/home/guydewinton/.local/bin/envs/full_django_v2/lib/python3.7/lib-dynload/_posixsubprocess.cpython-37m-x86_64-linux-gnu.so',
   'EXTENSION'),
  ('unicodedata',
   '/home/guydewinton/.local/bin/envs/full_django_v2/lib/python3.7/lib-dynload/unicodedata.cpython-37m-x86_64-linux-gnu.so',
   'EXTENSION'),
  ('pyexpat',
   '/home/guydewinton/.local/bin/envs/full_django_v2/lib/python3.7/lib-dynload/pyexpat.cpython-37m-x86_64-linux-gnu.so',
   'EXTENSION'),
  ('zlib',
   '/home/guydewinton/.local/bin/envs/full_django_v2/lib/python3.7/lib-dynload/zlib.cpython-37m-x86_64-linux-gnu.so',
   'EXTENSION'),
  ('readline',
   '/home/guydewinton/.local/bin/envs/full_django_v2/lib/python3.7/lib-dynload/readline.cpython-37m-x86_64-linux-gnu.so',
   'EXTENSION'),
  ('_opcode',
   '/home/guydewinton/.local/bin/envs/full_django_v2/lib/python3.7/lib-dynload/_opcode.cpython-37m-x86_64-linux-gnu.so',
   'EXTENSION'),
  ('_heapq',
   '/home/guydewinton/.local/bin/envs/full_django_v2/lib/python3.7/lib-dynload/_heapq.cpython-37m-x86_64-linux-gnu.so',
   'EXTENSION'),
  ('_multibytecodec',
   '/home/guydewinton/.local/bin/envs/full_django_v2/lib/python3.7/lib-dynload/_multibytecodec.cpython-37m-x86_64-linux-gnu.so',
   'EXTENSION'),
  ('_codecs_iso2022',
   '/home/guydewinton/.local/bin/envs/full_django_v2/lib/python3.7/lib-dynload/_codecs_iso2022.cpython-37m-x86_64-linux-gnu.so',
   'EXTENSION'),
  ('_codecs_kr',
   '/home/guydewinton/.local/bin/envs/full_django_v2/lib/python3.7/lib-dynload/_codecs_kr.cpython-37m-x86_64-linux-gnu.so',
   'EXTENSION'),
  ('_codecs_hk',
   '/home/guydewinton/.local/bin/envs/full_django_v2/lib/python3.7/lib-dynload/_codecs_hk.cpython-37m-x86_64-linux-gnu.so',
   'EXTENSION'),
  ('_codecs_tw',
   '/home/guydewinton/.local/bin/envs/full_django_v2/lib/python3.7/lib-dynload/_codecs_tw.cpython-37m-x86_64-linux-gnu.so',
   'EXTENSION'),
  ('_codecs_cn',
   '/home/guydewinton/.local/bin/envs/full_django_v2/lib/python3.7/lib-dynload/_codecs_cn.cpython-37m-x86_64-linux-gnu.so',
   'EXTENSION'),
  ('_codecs_jp',
   '/home/guydewinton/.local/bin/envs/full_django_v2/lib/python3.7/lib-dynload/_codecs_jp.cpython-37m-x86_64-linux-gnu.so',
   'EXTENSION'),
  ('_bz2',
   '/home/guydewinton/.local/bin/envs/full_django_v2/lib/python3.7/lib-dynload/_bz2.cpython-37m-x86_64-linux-gnu.so',
   'EXTENSION'),
  ('_sqlite3',
   '/home/guydewinton/.local/bin/envs/full_django_v2/lib/python3.7/lib-dynload/_sqlite3.cpython-37m-x86_64-linux-gnu.so',
   'EXTENSION'),
  ('_ctypes',
   '/home/guydewinton/.local/bin/envs/full_django_v2/lib/python3.7/lib-dynload/_ctypes.cpython-37m-x86_64-linux-gnu.so',
   'EXTENSION'),
  ('_json',
   '/home/guydewinton/.local/bin/envs/full_django_v2/lib/python3.7/lib-dynload/_json.cpython-37m-x86_64-linux-gnu.so',
   'EXTENSION'),
  ('grp',
   '/home/guydewinton/.local/bin/envs/full_django_v2/lib/python3.7/lib-dynload/grp.cpython-37m-x86_64-linux-gnu.so',
   'EXTENSION'),
  ('_lzma',
   '/home/guydewinton/.local/bin/envs/full_django_v2/lib/python3.7/lib-dynload/_lzma.cpython-37m-x86_64-linux-gnu.so',
   'EXTENSION'),
  ('resource',
   '/home/guydewinton/.local/bin/envs/full_django_v2/lib/python3.7/lib-dynload/resource.cpython-37m-x86_64-linux-gnu.so',
   'EXTENSION'),
  ('libz.so.1',
   '/home/guydewinton/.local/bin/envs/full_django_v2/lib/python3.7/lib-dynload/../../libz.so.1',
   'BINARY'),
  ('libcrypto.so.1.1',
   '/home/guydewinton/.local/bin/envs/full_django_v2/lib/python3.7/lib-dynload/../../libcrypto.so.1.1',
   'BINARY'),
  ('libssl.so.1.1',
   '/home/guydewinton/.local/bin/envs/full_django_v2/lib/python3.7/lib-dynload/../../libssl.so.1.1',
   'BINARY'),
  ('libreadline.so.8',
   '/home/guydewinton/.local/bin/envs/full_django_v2/lib/python3.7/lib-dynload/../../libreadline.so.8',
   'BINARY'),
  ('libtinfow.so.6',
   '/home/guydewinton/.local/bin/envs/full_django_v2/lib/python3.7/lib-dynload/../.././libtinfow.so.6',
   'BINARY'),
  ('libsqlite3.so.0',
   '/home/guydewinton/.local/bin/envs/full_django_v2/lib/python3.7/lib-dynload/../../libsqlite3.so.0',
   'BINARY'),
  ('libffi.so.7',
   '/home/guydewinton/.local/bin/envs/full_django_v2/lib/python3.7/lib-dynload/../../libffi.so.7',
   'BINARY'),
  ('liblzma.so.5',
   '/home/guydewinton/.local/bin/envs/full_django_v2/lib/python3.7/lib-dynload/../../liblzma.so.5',
   'BINARY'),
  ('libpython3.7m.so.1.0',
   '/home/guydewinton/.local/bin/envs/full_django_v2/lib/libpython3.7m.so.1.0',
   'BINARY')],
 [],
 [],
 [('base_library.zip',
   '/home/guydewinton/Documents/DevStuff/projects/watchbot/installer/package/work/watchbot_installer/base_library.zip',
   'DATA'),
  ('include/python3.7m/pyconfig.h',
   '/home/guydewinton/.local/bin/envs/full_django_v2/include/python3.7m/pyconfig.h',
   'DATA'),
  ('lib/python3.7/config-3.7m-x86_64-linux-gnu/Makefile',
   '/home/guydewinton/.local/bin/envs/full_django_v2/lib/python3.7/config-3.7m-x86_64-linux-gnu/Makefile',
   'DATA')],
 [])
