('/home/guydewinton/Documents/DevStuff/projects/watchbot/installer/package/work/watchbot_installer/PKG-00.pkg',
 {'BINARY': 1,
  'DATA': 1,
  'EXECUTABLE': 1,
  'EXTENSION': 1,
  'PYMODULE': 1,
  'PYSOURCE': 1,
  'PYZ': 0},
 [('PYZ-00.pyz',
   '/home/guydewinton/Documents/DevStuff/projects/watchbot/installer/package/work/watchbot_installer/PYZ-00.pyz',
   'PYZ'),
  ('_struct',
   '/home/guydewinton/.local/bin/envs/full_django_v2/lib/python3.7/lib-dynload/_struct.cpython-37m-x86_64-linux-gnu.so',
   'EXTENSION'),
  ('zlib',
   '/home/guydewinton/.local/bin/envs/full_django_v2/lib/python3.7/lib-dynload/zlib.cpython-37m-x86_64-linux-gnu.so',
   'EXTENSION'),
  ('struct',
   '/home/guydewinton/.local/bin/envs/full_django_v2/lib/python3.7/struct.pyo',
   'PYMODULE'),
  ('pyimod01_os_path',
   '/home/guydewinton/.local/bin/envs/full_django_v2/lib/python3.7/site-packages/PyInstaller/loader/pyimod01_os_path.pyc',
   'PYMODULE'),
  ('pyimod02_archive',
   '/home/guydewinton/.local/bin/envs/full_django_v2/lib/python3.7/site-packages/PyInstaller/loader/pyimod02_archive.pyc',
   'PYMODULE'),
  ('pyimod03_importers',
   '/home/guydewinton/.local/bin/envs/full_django_v2/lib/python3.7/site-packages/PyInstaller/loader/pyimod03_importers.pyc',
   'PYMODULE'),
  ('pyiboot01_bootstrap',
   '/home/guydewinton/.local/bin/envs/full_django_v2/lib/python3.7/site-packages/PyInstaller/loader/pyiboot01_bootstrap.py',
   'PYSOURCE'),
  ('installer',
   '/home/guydewinton/Documents/DevStuff/projects/watchbot/installer/installer.py',
   'PYSOURCE'),
  ('_datetime',
   '/home/guydewinton/.local/bin/envs/full_django_v2/lib/python3.7/lib-dynload/_datetime.cpython-37m-x86_64-linux-gnu.so',
   'EXTENSION'),
  ('math',
   '/home/guydewinton/.local/bin/envs/full_django_v2/lib/python3.7/lib-dynload/math.cpython-37m-x86_64-linux-gnu.so',
   'EXTENSION'),
  ('_pickle',
   '/home/guydewinton/.local/bin/envs/full_django_v2/lib/python3.7/lib-dynload/_pickle.cpython-37m-x86_64-linux-gnu.so',
   'EXTENSION'),
  ('_socket',
   '/home/guydewinton/.local/bin/envs/full_django_v2/lib/python3.7/lib-dynload/_socket.cpython-37m-x86_64-linux-gnu.so',
   'EXTENSION'),
  ('select',
   '/home/guydewinton/.local/bin/envs/full_django_v2/lib/python3.7/lib-dynload/select.cpython-37m-x86_64-linux-gnu.so',
   'EXTENSION'),
  ('binascii',
   '/home/guydewinton/.local/bin/envs/full_django_v2/lib/python3.7/lib-dynload/binascii.cpython-37m-x86_64-linux-gnu.so',
   'EXTENSION'),
  ('_random',
   '/home/guydewinton/.local/bin/envs/full_django_v2/lib/python3.7/lib-dynload/_random.cpython-37m-x86_64-linux-gnu.so',
   'EXTENSION'),
  ('_bisect',
   '/home/guydewinton/.local/bin/envs/full_django_v2/lib/python3.7/lib-dynload/_bisect.cpython-37m-x86_64-linux-gnu.so',
   'EXTENSION'),
  ('_hashlib',
   '/home/guydewinton/.local/bin/envs/full_django_v2/lib/python3.7/lib-dynload/_hashlib.cpython-37m-x86_64-linux-gnu.so',
   'EXTENSION'),
  ('_sha3',
   '/home/guydewinton/.local/bin/envs/full_django_v2/lib/python3.7/lib-dynload/_sha3.cpython-37m-x86_64-linux-gnu.so',
   'EXTENSION'),
  ('_blake2',
   '/home/guydewinton/.local/bin/envs/full_django_v2/lib/python3.7/lib-dynload/_blake2.cpython-37m-x86_64-linux-gnu.so',
   'EXTENSION'),
  ('_sha512',
   '/home/guydewinton/.local/bin/envs/full_django_v2/lib/python3.7/lib-dynload/_sha512.cpython-37m-x86_64-linux-gnu.so',
   'EXTENSION'),
  ('_sha256',
   '/home/guydewinton/.local/bin/envs/full_django_v2/lib/python3.7/lib-dynload/_sha256.cpython-37m-x86_64-linux-gnu.so',
   'EXTENSION'),
  ('_md5',
   '/home/guydewinton/.local/bin/envs/full_django_v2/lib/python3.7/lib-dynload/_md5.cpython-37m-x86_64-linux-gnu.so',
   'EXTENSION'),
  ('_sha1',
   '/home/guydewinton/.local/bin/envs/full_django_v2/lib/python3.7/lib-dynload/_sha1.cpython-37m-x86_64-linux-gnu.so',
   'EXTENSION'),
  ('_ssl',
   '/home/guydewinton/.local/bin/envs/full_django_v2/lib/python3.7/lib-dynload/_ssl.cpython-37m-x86_64-linux-gnu.so',
   'EXTENSION'),
  ('termios',
   '/home/guydewinton/.local/bin/envs/full_django_v2/lib/python3.7/lib-dynload/termios.cpython-37m-x86_64-linux-gnu.so',
   'EXTENSION'),
  ('_posixsubprocess',
   '/home/guydewinton/.local/bin/envs/full_django_v2/lib/python3.7/lib-dynload/_posixsubprocess.cpython-37m-x86_64-linux-gnu.so',
   'EXTENSION'),
  ('unicodedata',
   '/home/guydewinton/.local/bin/envs/full_django_v2/lib/python3.7/lib-dynload/unicodedata.cpython-37m-x86_64-linux-gnu.so',
   'EXTENSION'),
  ('pyexpat',
   '/home/guydewinton/.local/bin/envs/full_django_v2/lib/python3.7/lib-dynload/pyexpat.cpython-37m-x86_64-linux-gnu.so',
   'EXTENSION'),
  ('readline',
   '/home/guydewinton/.local/bin/envs/full_django_v2/lib/python3.7/lib-dynload/readline.cpython-37m-x86_64-linux-gnu.so',
   'EXTENSION'),
  ('_opcode',
   '/home/guydewinton/.local/bin/envs/full_django_v2/lib/python3.7/lib-dynload/_opcode.cpython-37m-x86_64-linux-gnu.so',
   'EXTENSION'),
  ('_heapq',
   '/home/guydewinton/.local/bin/envs/full_django_v2/lib/python3.7/lib-dynload/_heapq.cpython-37m-x86_64-linux-gnu.so',
   'EXTENSION'),
  ('_multibytecodec',
   '/home/guydewinton/.local/bin/envs/full_django_v2/lib/python3.7/lib-dynload/_multibytecodec.cpython-37m-x86_64-linux-gnu.so',
   'EXTENSION'),
  ('_codecs_iso2022',
   '/home/guydewinton/.local/bin/envs/full_django_v2/lib/python3.7/lib-dynload/_codecs_iso2022.cpython-37m-x86_64-linux-gnu.so',
   'EXTENSION'),
  ('_codecs_kr',
   '/home/guydewinton/.local/bin/envs/full_django_v2/lib/python3.7/lib-dynload/_codecs_kr.cpython-37m-x86_64-linux-gnu.so',
   'EXTENSION'),
  ('_codecs_hk',
   '/home/guydewinton/.local/bin/envs/full_django_v2/lib/python3.7/lib-dynload/_codecs_hk.cpython-37m-x86_64-linux-gnu.so',
   'EXTENSION'),
  ('_codecs_tw',
   '/home/guydewinton/.local/bin/envs/full_django_v2/lib/python3.7/lib-dynload/_codecs_tw.cpython-37m-x86_64-linux-gnu.so',
   'EXTENSION'),
  ('_codecs_cn',
   '/home/guydewinton/.local/bin/envs/full_django_v2/lib/python3.7/lib-dynload/_codecs_cn.cpython-37m-x86_64-linux-gnu.so',
   'EXTENSION'),
  ('_codecs_jp',
   '/home/guydewinton/.local/bin/envs/full_django_v2/lib/python3.7/lib-dynload/_codecs_jp.cpython-37m-x86_64-linux-gnu.so',
   'EXTENSION'),
  ('_bz2',
   '/home/guydewinton/.local/bin/envs/full_django_v2/lib/python3.7/lib-dynload/_bz2.cpython-37m-x86_64-linux-gnu.so',
   'EXTENSION'),
  ('_sqlite3',
   '/home/guydewinton/.local/bin/envs/full_django_v2/lib/python3.7/lib-dynload/_sqlite3.cpython-37m-x86_64-linux-gnu.so',
   'EXTENSION'),
  ('_ctypes',
   '/home/guydewinton/.local/bin/envs/full_django_v2/lib/python3.7/lib-dynload/_ctypes.cpython-37m-x86_64-linux-gnu.so',
   'EXTENSION'),
  ('_json',
   '/home/guydewinton/.local/bin/envs/full_django_v2/lib/python3.7/lib-dynload/_json.cpython-37m-x86_64-linux-gnu.so',
   'EXTENSION'),
  ('grp',
   '/home/guydewinton/.local/bin/envs/full_django_v2/lib/python3.7/lib-dynload/grp.cpython-37m-x86_64-linux-gnu.so',
   'EXTENSION'),
  ('_lzma',
   '/home/guydewinton/.local/bin/envs/full_django_v2/lib/python3.7/lib-dynload/_lzma.cpython-37m-x86_64-linux-gnu.so',
   'EXTENSION'),
  ('resource',
   '/home/guydewinton/.local/bin/envs/full_django_v2/lib/python3.7/lib-dynload/resource.cpython-37m-x86_64-linux-gnu.so',
   'EXTENSION'),
  ('libz.so.1',
   '/home/guydewinton/.local/bin/envs/full_django_v2/lib/python3.7/lib-dynload/../../libz.so.1',
   'BINARY'),
  ('libcrypto.so.1.1',
   '/home/guydewinton/.local/bin/envs/full_django_v2/lib/python3.7/lib-dynload/../../libcrypto.so.1.1',
   'BINARY'),
  ('libssl.so.1.1',
   '/home/guydewinton/.local/bin/envs/full_django_v2/lib/python3.7/lib-dynload/../../libssl.so.1.1',
   'BINARY'),
  ('libreadline.so.8',
   '/home/guydewinton/.local/bin/envs/full_django_v2/lib/python3.7/lib-dynload/../../libreadline.so.8',
   'BINARY'),
  ('libtinfow.so.6',
   '/home/guydewinton/.local/bin/envs/full_django_v2/lib/python3.7/lib-dynload/../.././libtinfow.so.6',
   'BINARY'),
  ('libsqlite3.so.0',
   '/home/guydewinton/.local/bin/envs/full_django_v2/lib/python3.7/lib-dynload/../../libsqlite3.so.0',
   'BINARY'),
  ('libffi.so.7',
   '/home/guydewinton/.local/bin/envs/full_django_v2/lib/python3.7/lib-dynload/../../libffi.so.7',
   'BINARY'),
  ('liblzma.so.5',
   '/home/guydewinton/.local/bin/envs/full_django_v2/lib/python3.7/lib-dynload/../../liblzma.so.5',
   'BINARY'),
  ('libpython3.7m.so.1.0',
   '/home/guydewinton/.local/bin/envs/full_django_v2/lib/libpython3.7m.so.1.0',
   'BINARY'),
  ('base_library.zip',
   '/home/guydewinton/Documents/DevStuff/projects/watchbot/installer/package/work/watchbot_installer/base_library.zip',
   'DATA'),
  ('include/python3.7m/pyconfig.h',
   '/home/guydewinton/.local/bin/envs/full_django_v2/include/python3.7m/pyconfig.h',
   'DATA'),
  ('lib/python3.7/config-3.7m-x86_64-linux-gnu/Makefile',
   '/home/guydewinton/.local/bin/envs/full_django_v2/lib/python3.7/config-3.7m-x86_64-linux-gnu/Makefile',
   'DATA'),
  ('etc/db_schema.py',
   '/home/guydewinton/Documents/DevStuff/projects/watchbot/installer/lib/db_schema.py',
   'DATA'),
  ('etc/watchbot.service',
   '/home/guydewinton/Documents/DevStuff/projects/watchbot/installer/lib/watchbot.service',
   'DATA'),
  ('binaries/watchbotd',
   '/home/guydewinton/Documents/DevStuff/projects/watchbot/installer/bin/watchbotd',
   'DATA'),
  ('etc/config.py',
   '/home/guydewinton/Documents/DevStuff/projects/watchbot/installer/lib/config.py',
   'DATA'),
  ('binaries/watchbot',
   '/home/guydewinton/Documents/DevStuff/projects/watchbot/installer/bin/watchbot',
   'DATA')],
 False,
 False,
 False,
 [])
