('/home/guydewinton/Documents/DevStuff/projects/watchbot/watchbotd/package/work/watchbotd/PYZ-00.pyz',
 [('sqlite3_api',
   '/home/guydewinton/.local/bin/envs/full_django_v2/lib/python3.7/site-packages/sqlite3_api/__init__.py',
   'PYMODULE'),
  ('typing',
   '/home/guydewinton/.local/bin/envs/full_django_v2/lib/python3.7/typing.py',
   'PYMODULE'),
  ('contextlib',
   '/home/guydewinton/.local/bin/envs/full_django_v2/lib/python3.7/contextlib.py',
   'PYMODULE'),
  ('tracemalloc',
   '/home/guydewinton/.local/bin/envs/full_django_v2/lib/python3.7/tracemalloc.py',
   'PYMODULE'),
  ('pickle',
   '/home/guydewinton/.local/bin/envs/full_django_v2/lib/python3.7/pickle.py',
   'PYMODULE'),
  ('pprint',
   '/home/guydewinton/.local/bin/envs/full_django_v2/lib/python3.7/pprint.py',
   'PYMODULE'),
  ('argparse',
   '/home/guydewinton/.local/bin/envs/full_django_v2/lib/python3.7/argparse.py',
   'PYMODULE'),
  ('textwrap',
   '/home/guydewinton/.local/bin/envs/full_django_v2/lib/python3.7/textwrap.py',
   'PYMODULE'),
  ('copy',
   '/home/guydewinton/.local/bin/envs/full_django_v2/lib/python3.7/copy.py',
   'PYMODULE'),
  ('gettext',
   '/home/guydewinton/.local/bin/envs/full_django_v2/lib/python3.7/gettext.py',
   'PYMODULE'),
  ('doctest',
   '/home/guydewinton/.local/bin/envs/full_django_v2/lib/python3.7/doctest.py',
   'PYMODULE'),
  ('unittest',
   '/home/guydewinton/.local/bin/envs/full_django_v2/lib/python3.7/unittest/__init__.py',
   'PYMODULE'),
  ('unittest.signals',
   '/home/guydewinton/.local/bin/envs/full_django_v2/lib/python3.7/unittest/signals.py',
   'PYMODULE'),
  ('signal',
   '/home/guydewinton/.local/bin/envs/full_django_v2/lib/python3.7/signal.py',
   'PYMODULE'),
  ('unittest.main',
   '/home/guydewinton/.local/bin/envs/full_django_v2/lib/python3.7/unittest/main.py',
   'PYMODULE'),
  ('unittest.runner',
   '/home/guydewinton/.local/bin/envs/full_django_v2/lib/python3.7/unittest/runner.py',
   'PYMODULE'),
  ('unittest.loader',
   '/home/guydewinton/.local/bin/envs/full_django_v2/lib/python3.7/unittest/loader.py',
   'PYMODULE'),
  ('unittest.suite',
   '/home/guydewinton/.local/bin/envs/full_django_v2/lib/python3.7/unittest/suite.py',
   'PYMODULE'),
  ('unittest.case',
   '/home/guydewinton/.local/bin/envs/full_django_v2/lib/python3.7/unittest/case.py',
   'PYMODULE'),
  ('logging',
   '/home/guydewinton/.local/bin/envs/full_django_v2/lib/python3.7/logging/__init__.py',
   'PYMODULE'),
  ('string',
   '/home/guydewinton/.local/bin/envs/full_django_v2/lib/python3.7/string.py',
   'PYMODULE'),
  ('unittest.result',
   '/home/guydewinton/.local/bin/envs/full_django_v2/lib/python3.7/unittest/result.py',
   'PYMODULE'),
  ('unittest.util',
   '/home/guydewinton/.local/bin/envs/full_django_v2/lib/python3.7/unittest/util.py',
   'PYMODULE'),
  ('pdb',
   '/home/guydewinton/.local/bin/envs/full_django_v2/lib/python3.7/pdb.py',
   'PYMODULE'),
  ('getopt',
   '/home/guydewinton/.local/bin/envs/full_django_v2/lib/python3.7/getopt.py',
   'PYMODULE'),
  ('pydoc',
   '/home/guydewinton/.local/bin/envs/full_django_v2/lib/python3.7/pydoc.py',
   'PYMODULE'),
  ('webbrowser',
   '/home/guydewinton/.local/bin/envs/full_django_v2/lib/python3.7/webbrowser.py',
   'PYMODULE'),
  ('socket',
   '/home/guydewinton/.local/bin/envs/full_django_v2/lib/python3.7/socket.py',
   'PYMODULE'),
  ('selectors',
   '/home/guydewinton/.local/bin/envs/full_django_v2/lib/python3.7/selectors.py',
   'PYMODULE'),
  ('shutil',
   '/home/guydewinton/.local/bin/envs/full_django_v2/lib/python3.7/shutil.py',
   'PYMODULE'),
  ('zipfile',
   '/home/guydewinton/.local/bin/envs/full_django_v2/lib/python3.7/zipfile.py',
   'PYMODULE'),
  ('py_compile',
   '/home/guydewinton/.local/bin/envs/full_django_v2/lib/python3.7/py_compile.py',
   'PYMODULE'),
  ('tarfile',
   '/home/guydewinton/.local/bin/envs/full_django_v2/lib/python3.7/tarfile.py',
   'PYMODULE'),
  ('gzip',
   '/home/guydewinton/.local/bin/envs/full_django_v2/lib/python3.7/gzip.py',
   'PYMODULE'),
  ('_compression',
   '/home/guydewinton/.local/bin/envs/full_django_v2/lib/python3.7/_compression.py',
   'PYMODULE'),
  ('lzma',
   '/home/guydewinton/.local/bin/envs/full_django_v2/lib/python3.7/lzma.py',
   'PYMODULE'),
  ('bz2',
   '/home/guydewinton/.local/bin/envs/full_django_v2/lib/python3.7/bz2.py',
   'PYMODULE'),
  ('stat',
   '/home/guydewinton/.local/bin/envs/full_django_v2/lib/python3.7/stat.py',
   'PYMODULE'),
  ('email.message',
   '/home/guydewinton/.local/bin/envs/full_django_v2/lib/python3.7/email/message.py',
   'PYMODULE'),
  ('email.policy',
   '/home/guydewinton/.local/bin/envs/full_django_v2/lib/python3.7/email/policy.py',
   'PYMODULE'),
  ('email.contentmanager',
   '/home/guydewinton/.local/bin/envs/full_django_v2/lib/python3.7/email/contentmanager.py',
   'PYMODULE'),
  ('email.quoprimime',
   '/home/guydewinton/.local/bin/envs/full_django_v2/lib/python3.7/email/quoprimime.py',
   'PYMODULE'),
  ('email.headerregistry',
   '/home/guydewinton/.local/bin/envs/full_django_v2/lib/python3.7/email/headerregistry.py',
   'PYMODULE'),
  ('email._header_value_parser',
   '/home/guydewinton/.local/bin/envs/full_django_v2/lib/python3.7/email/_header_value_parser.py',
   'PYMODULE'),
  ('urllib',
   '/home/guydewinton/.local/bin/envs/full_django_v2/lib/python3.7/urllib/__init__.py',
   'PYMODULE'),
  ('email.iterators',
   '/home/guydewinton/.local/bin/envs/full_django_v2/lib/python3.7/email/iterators.py',
   'PYMODULE'),
  ('email.generator',
   '/home/guydewinton/.local/bin/envs/full_django_v2/lib/python3.7/email/generator.py',
   'PYMODULE'),
  ('random',
   '/home/guydewinton/.local/bin/envs/full_django_v2/lib/python3.7/random.py',
   'PYMODULE'),
  ('bisect',
   '/home/guydewinton/.local/bin/envs/full_django_v2/lib/python3.7/bisect.py',
   'PYMODULE'),
  ('hashlib',
   '/home/guydewinton/.local/bin/envs/full_django_v2/lib/python3.7/hashlib.py',
   'PYMODULE'),
  ('email._encoded_words',
   '/home/guydewinton/.local/bin/envs/full_django_v2/lib/python3.7/email/_encoded_words.py',
   'PYMODULE'),
  ('base64',
   '/home/guydewinton/.local/bin/envs/full_django_v2/lib/python3.7/base64.py',
   'PYMODULE'),
  ('email.charset',
   '/home/guydewinton/.local/bin/envs/full_django_v2/lib/python3.7/email/charset.py',
   'PYMODULE'),
  ('email.encoders',
   '/home/guydewinton/.local/bin/envs/full_django_v2/lib/python3.7/email/encoders.py',
   'PYMODULE'),
  ('email.base64mime',
   '/home/guydewinton/.local/bin/envs/full_django_v2/lib/python3.7/email/base64mime.py',
   'PYMODULE'),
  ('email._policybase',
   '/home/guydewinton/.local/bin/envs/full_django_v2/lib/python3.7/email/_policybase.py',
   'PYMODULE'),
  ('email.header',
   '/home/guydewinton/.local/bin/envs/full_django_v2/lib/python3.7/email/header.py',
   'PYMODULE'),
  ('email.errors',
   '/home/guydewinton/.local/bin/envs/full_django_v2/lib/python3.7/email/errors.py',
   'PYMODULE'),
  ('email.utils',
   '/home/guydewinton/.local/bin/envs/full_django_v2/lib/python3.7/email/utils.py',
   'PYMODULE'),
  ('email._parseaddr',
   '/home/guydewinton/.local/bin/envs/full_django_v2/lib/python3.7/email/_parseaddr.py',
   'PYMODULE'),
  ('calendar',
   '/home/guydewinton/.local/bin/envs/full_django_v2/lib/python3.7/calendar.py',
   'PYMODULE'),
  ('datetime',
   '/home/guydewinton/.local/bin/envs/full_django_v2/lib/python3.7/datetime.py',
   'PYMODULE'),
  ('_strptime',
   '/home/guydewinton/.local/bin/envs/full_django_v2/lib/python3.7/_strptime.py',
   'PYMODULE'),
  ('email',
   '/home/guydewinton/.local/bin/envs/full_django_v2/lib/python3.7/email/__init__.py',
   'PYMODULE'),
  ('email.parser',
   '/home/guydewinton/.local/bin/envs/full_django_v2/lib/python3.7/email/parser.py',
   'PYMODULE'),
  ('email.feedparser',
   '/home/guydewinton/.local/bin/envs/full_django_v2/lib/python3.7/email/feedparser.py',
   'PYMODULE'),
  ('quopri',
   '/home/guydewinton/.local/bin/envs/full_django_v2/lib/python3.7/quopri.py',
   'PYMODULE'),
  ('uu',
   '/home/guydewinton/.local/bin/envs/full_django_v2/lib/python3.7/uu.py',
   'PYMODULE'),
  ('optparse',
   '/home/guydewinton/.local/bin/envs/full_django_v2/lib/python3.7/optparse.py',
   'PYMODULE'),
  ('http.server',
   '/home/guydewinton/.local/bin/envs/full_django_v2/lib/python3.7/http/server.py',
   'PYMODULE'),
  ('http',
   '/home/guydewinton/.local/bin/envs/full_django_v2/lib/python3.7/http/__init__.py',
   'PYMODULE'),
  ('socketserver',
   '/home/guydewinton/.local/bin/envs/full_django_v2/lib/python3.7/socketserver.py',
   'PYMODULE'),
  ('posixpath',
   '/home/guydewinton/.local/bin/envs/full_django_v2/lib/python3.7/posixpath.py',
   'PYMODULE'),
  ('genericpath',
   '/home/guydewinton/.local/bin/envs/full_django_v2/lib/python3.7/genericpath.py',
   'PYMODULE'),
  ('mimetypes',
   '/home/guydewinton/.local/bin/envs/full_django_v2/lib/python3.7/mimetypes.py',
   'PYMODULE'),
  ('http.client',
   '/home/guydewinton/.local/bin/envs/full_django_v2/lib/python3.7/http/client.py',
   'PYMODULE'),
  ('ssl',
   '/home/guydewinton/.local/bin/envs/full_django_v2/lib/python3.7/ssl.py',
   'PYMODULE'),
  ('html',
   '/home/guydewinton/.local/bin/envs/full_django_v2/lib/python3.7/html/__init__.py',
   'PYMODULE'),
  ('html.entities',
   '/home/guydewinton/.local/bin/envs/full_django_v2/lib/python3.7/html/entities.py',
   'PYMODULE'),
  ('pydoc_data.topics',
   '/home/guydewinton/.local/bin/envs/full_django_v2/lib/python3.7/pydoc_data/topics.py',
   'PYMODULE'),
  ('pydoc_data',
   '/home/guydewinton/.local/bin/envs/full_django_v2/lib/python3.7/pydoc_data/__init__.py',
   'PYMODULE'),
  ('tty',
   '/home/guydewinton/.local/bin/envs/full_django_v2/lib/python3.7/tty.py',
   'PYMODULE'),
  ('subprocess',
   '/home/guydewinton/.local/bin/envs/full_django_v2/lib/python3.7/subprocess.py',
   'PYMODULE'),
  ('tempfile',
   '/home/guydewinton/.local/bin/envs/full_django_v2/lib/python3.7/tempfile.py',
   'PYMODULE'),
  ('urllib.parse',
   '/home/guydewinton/.local/bin/envs/full_django_v2/lib/python3.7/urllib/parse.py',
   'PYMODULE'),
  ('tokenize',
   '/home/guydewinton/.local/bin/envs/full_django_v2/lib/python3.7/tokenize.py',
   'PYMODULE'),
  ('token',
   '/home/guydewinton/.local/bin/envs/full_django_v2/lib/python3.7/token.py',
   'PYMODULE'),
  ('sysconfig',
   '/home/guydewinton/.local/bin/envs/full_django_v2/lib/python3.7/sysconfig.py',
   'PYMODULE'),
  ('_sysconfigdata_m_linux_x86_64-linux-gnu',
   '/home/guydewinton/.local/bin/envs/full_django_v2/lib/python3.7/_sysconfigdata_m_linux_x86_64-linux-gnu.py',
   'PYMODULE'),
  ('_osx_support',
   '/home/guydewinton/.local/bin/envs/full_django_v2/lib/python3.7/_osx_support.py',
   'PYMODULE'),
  ('distutils.log',
   '/home/guydewinton/.local/bin/envs/full_django_v2/lib/python3.7/distutils/log.py',
   'PYMODULE'),
  ('distutils',
   '/home/guydewinton/.local/bin/envs/full_django_v2/lib/python3.7/distutils/__init__.py',
   'PYMODULE'),
  ('platform',
   '/home/guydewinton/.local/bin/envs/full_django_v2/lib/python3.7/platform.py',
   'PYMODULE'),
  ('plistlib',
   '/home/guydewinton/.local/bin/envs/full_django_v2/lib/python3.7/plistlib.py',
   'PYMODULE'),
  ('xml.parsers.expat',
   '/home/guydewinton/.local/bin/envs/full_django_v2/lib/python3.7/xml/parsers/expat.py',
   'PYMODULE'),
  ('xml.parsers',
   '/home/guydewinton/.local/bin/envs/full_django_v2/lib/python3.7/xml/parsers/__init__.py',
   'PYMODULE'),
  ('xml',
   '/home/guydewinton/.local/bin/envs/full_django_v2/lib/python3.7/xml/__init__.py',
   'PYMODULE'),
  ('xml.sax.expatreader',
   '/home/guydewinton/.local/bin/envs/full_django_v2/lib/python3.7/xml/sax/expatreader.py',
   'PYMODULE'),
  ('xml.sax.saxutils',
   '/home/guydewinton/.local/bin/envs/full_django_v2/lib/python3.7/xml/sax/saxutils.py',
   'PYMODULE'),
  ('urllib.request',
   '/home/guydewinton/.local/bin/envs/full_django_v2/lib/python3.7/urllib/request.py',
   'PYMODULE'),
  ('getpass',
   '/home/guydewinton/.local/bin/envs/full_django_v2/lib/python3.7/getpass.py',
   'PYMODULE'),
  ('nturl2path',
   '/home/guydewinton/.local/bin/envs/full_django_v2/lib/python3.7/nturl2path.py',
   'PYMODULE'),
  ('ftplib',
   '/home/guydewinton/.local/bin/envs/full_django_v2/lib/python3.7/ftplib.py',
   'PYMODULE'),
  ('netrc',
   '/home/guydewinton/.local/bin/envs/full_django_v2/lib/python3.7/netrc.py',
   'PYMODULE'),
  ('http.cookiejar',
   '/home/guydewinton/.local/bin/envs/full_django_v2/lib/python3.7/http/cookiejar.py',
   'PYMODULE'),
  ('urllib.response',
   '/home/guydewinton/.local/bin/envs/full_django_v2/lib/python3.7/urllib/response.py',
   'PYMODULE'),
  ('urllib.error',
   '/home/guydewinton/.local/bin/envs/full_django_v2/lib/python3.7/urllib/error.py',
   'PYMODULE'),
  ('xml.sax',
   '/home/guydewinton/.local/bin/envs/full_django_v2/lib/python3.7/xml/sax/__init__.py',
   'PYMODULE'),
  ('xml.sax.handler',
   '/home/guydewinton/.local/bin/envs/full_django_v2/lib/python3.7/xml/sax/handler.py',
   'PYMODULE'),
  ('xml.sax._exceptions',
   '/home/guydewinton/.local/bin/envs/full_django_v2/lib/python3.7/xml/sax/_exceptions.py',
   'PYMODULE'),
  ('xml.sax.xmlreader',
   '/home/guydewinton/.local/bin/envs/full_django_v2/lib/python3.7/xml/sax/xmlreader.py',
   'PYMODULE'),
  ('pkgutil',
   '/home/guydewinton/.local/bin/envs/full_django_v2/lib/python3.7/pkgutil.py',
   'PYMODULE'),
  ('importlib',
   '/home/guydewinton/.local/bin/envs/full_django_v2/lib/python3.7/importlib/__init__.py',
   'PYMODULE'),
  ('importlib.abc',
   '/home/guydewinton/.local/bin/envs/full_django_v2/lib/python3.7/importlib/abc.py',
   'PYMODULE'),
  ('importlib.util',
   '/home/guydewinton/.local/bin/envs/full_django_v2/lib/python3.7/importlib/util.py',
   'PYMODULE'),
  ('importlib.machinery',
   '/home/guydewinton/.local/bin/envs/full_django_v2/lib/python3.7/importlib/machinery.py',
   'PYMODULE'),
  ('importlib._bootstrap_external',
   '/home/guydewinton/.local/bin/envs/full_django_v2/lib/python3.7/importlib/_bootstrap_external.py',
   'PYMODULE'),
  ('importlib._bootstrap',
   '/home/guydewinton/.local/bin/envs/full_django_v2/lib/python3.7/importlib/_bootstrap.py',
   'PYMODULE'),
  ('runpy',
   '/home/guydewinton/.local/bin/envs/full_django_v2/lib/python3.7/runpy.py',
   'PYMODULE'),
  ('shlex',
   '/home/guydewinton/.local/bin/envs/full_django_v2/lib/python3.7/shlex.py',
   'PYMODULE'),
  ('glob',
   '/home/guydewinton/.local/bin/envs/full_django_v2/lib/python3.7/glob.py',
   'PYMODULE'),
  ('code',
   '/home/guydewinton/.local/bin/envs/full_django_v2/lib/python3.7/code.py',
   'PYMODULE'),
  ('codeop',
   '/home/guydewinton/.local/bin/envs/full_django_v2/lib/python3.7/codeop.py',
   'PYMODULE'),
  ('dis',
   '/home/guydewinton/.local/bin/envs/full_django_v2/lib/python3.7/dis.py',
   'PYMODULE'),
  ('opcode',
   '/home/guydewinton/.local/bin/envs/full_django_v2/lib/python3.7/opcode.py',
   'PYMODULE'),
  ('bdb',
   '/home/guydewinton/.local/bin/envs/full_django_v2/lib/python3.7/bdb.py',
   'PYMODULE'),
  ('cmd',
   '/home/guydewinton/.local/bin/envs/full_django_v2/lib/python3.7/cmd.py',
   'PYMODULE'),
  ('inspect',
   '/home/guydewinton/.local/bin/envs/full_django_v2/lib/python3.7/inspect.py',
   'PYMODULE'),
  ('ast',
   '/home/guydewinton/.local/bin/envs/full_django_v2/lib/python3.7/ast.py',
   'PYMODULE'),
  ('difflib',
   '/home/guydewinton/.local/bin/envs/full_django_v2/lib/python3.7/difflib.py',
   'PYMODULE'),
  ('__future__',
   '/home/guydewinton/.local/bin/envs/full_django_v2/lib/python3.7/__future__.py',
   'PYMODULE'),
  ('_compat_pickle',
   '/home/guydewinton/.local/bin/envs/full_django_v2/lib/python3.7/_compat_pickle.py',
   'PYMODULE'),
  ('struct',
   '/home/guydewinton/.local/bin/envs/full_django_v2/lib/python3.7/struct.py',
   'PYMODULE'),
  ('fnmatch',
   '/home/guydewinton/.local/bin/envs/full_django_v2/lib/python3.7/fnmatch.py',
   'PYMODULE'),
  ('_py_abc',
   '/home/guydewinton/.local/bin/envs/full_django_v2/lib/python3.7/_py_abc.py',
   'PYMODULE'),
  ('stringprep',
   '/home/guydewinton/.local/bin/envs/full_django_v2/lib/python3.7/stringprep.py',
   'PYMODULE'),
  ('src.library.helpers.socket.server',
   '/home/guydewinton/Documents/DevStuff/projects/watchbot/watchbotd/src/library/helpers/socket/server.py',
   'PYMODULE'),
  ('src.library.helpers.socket',
   '/home/guydewinton/Documents/DevStuff/projects/watchbot/watchbotd/src/library/helpers/socket/__init__.py',
   'PYMODULE'),
  ('src.library.helpers',
   '/home/guydewinton/Documents/DevStuff/projects/watchbot/watchbotd/src/library/helpers/__init__.py',
   'PYMODULE'),
  ('src.library',
   '/home/guydewinton/Documents/DevStuff/projects/watchbot/watchbotd/src/library/__init__.py',
   'PYMODULE'),
  ('src',
   '/home/guydewinton/Documents/DevStuff/projects/watchbot/watchbotd/src/__init__.py',
   'PYMODULE'),
  ('src.socket_router',
   '/home/guydewinton/Documents/DevStuff/projects/watchbot/watchbotd/src/socket_router.py',
   'PYMODULE'),
  ('src.modules.watchtrigger_list.watchtrigger_list_cli_router',
   '/home/guydewinton/Documents/DevStuff/projects/watchbot/watchbotd/src/modules/watchtrigger_list/watchtrigger_list_cli_router.py',
   'PYMODULE'),
  ('src.modules.watchtrigger_list',
   '/home/guydewinton/Documents/DevStuff/projects/watchbot/watchbotd/src/modules/watchtrigger_list/__init__.py',
   'PYMODULE'),
  ('src.modules',
   '/home/guydewinton/Documents/DevStuff/projects/watchbot/watchbotd/src/modules/__init__.py',
   'PYMODULE'),
  ('src.library.helpers.sqlite.sqlite',
   '/home/guydewinton/Documents/DevStuff/projects/watchbot/watchbotd/src/library/helpers/sqlite/sqlite.py',
   'PYMODULE'),
  ('src.library.helpers.sqlite',
   '/home/guydewinton/Documents/DevStuff/projects/watchbot/watchbotd/src/library/helpers/sqlite/__init__.py',
   'PYMODULE'),
  ('src.library.helpers.sqlite.options',
   '/home/guydewinton/Documents/DevStuff/projects/watchbot/watchbotd/src/library/helpers/sqlite/options.py',
   'PYMODULE'),
  ('src.library.helpers.data.data',
   '/home/guydewinton/Documents/DevStuff/projects/watchbot/watchbotd/src/library/helpers/data/data.py',
   'PYMODULE'),
  ('src.library.helpers.data',
   '/home/guydewinton/Documents/DevStuff/projects/watchbot/watchbotd/src/library/helpers/data/__init__.py',
   'PYMODULE'),
  ('os_tools.generic',
   '/home/guydewinton/.local/bin/envs/full_django_v2/lib/python3.7/site-packages/os_tools/generic.py',
   'PYMODULE'),
  ('os_tools',
   '/home/guydewinton/.local/bin/envs/full_django_v2/lib/python3.7/site-packages/os_tools/__init__.py',
   'PYMODULE'),
  ('os_tools.modules.linux.get_user_info',
   '/home/guydewinton/.local/bin/envs/full_django_v2/lib/python3.7/site-packages/os_tools/modules/linux/get_user_info.py',
   'PYMODULE'),
  ('os_tools.modules.linux',
   '/home/guydewinton/.local/bin/envs/full_django_v2/lib/python3.7/site-packages/os_tools/modules/linux/__init__.py',
   'PYMODULE'),
  ('os_tools.modules',
   '/home/guydewinton/.local/bin/envs/full_django_v2/lib/python3.7/site-packages/os_tools/modules/__init__.py',
   'PYMODULE'),
  ('os_tools.modules.linux.get_groups_users',
   '/home/guydewinton/.local/bin/envs/full_django_v2/lib/python3.7/site-packages/os_tools/modules/linux/get_groups_users.py',
   'PYMODULE'),
  ('os_tools.modules.universal.execute',
   '/home/guydewinton/.local/bin/envs/full_django_v2/lib/python3.7/site-packages/os_tools/modules/universal/execute.py',
   'PYMODULE'),
  ('os_tools.modules.universal',
   '/home/guydewinton/.local/bin/envs/full_django_v2/lib/python3.7/site-packages/os_tools/modules/universal/__init__.py',
   'PYMODULE'),
  ('os_tools.modules.linux.get_user_groups',
   '/home/guydewinton/.local/bin/envs/full_django_v2/lib/python3.7/site-packages/os_tools/modules/linux/get_user_groups.py',
   'PYMODULE'),
  ('os_tools.modules.linux.check_user_sudo',
   '/home/guydewinton/.local/bin/envs/full_django_v2/lib/python3.7/site-packages/os_tools/modules/linux/check_user_sudo.py',
   'PYMODULE'),
  ('os_tools.modules.linux.check_user_password',
   '/home/guydewinton/.local/bin/envs/full_django_v2/lib/python3.7/site-packages/os_tools/modules/linux/check_user_password.py',
   'PYMODULE'),
  ('crypt',
   '/home/guydewinton/.local/bin/envs/full_django_v2/lib/python3.7/crypt.py',
   'PYMODULE'),
  ('os_tools.modules.linux.check_user_in_group',
   '/home/guydewinton/.local/bin/envs/full_django_v2/lib/python3.7/site-packages/os_tools/modules/linux/check_user_in_group.py',
   'PYMODULE'),
  ('os_tools.modules.linux.check_user_file_permissions',
   '/home/guydewinton/.local/bin/envs/full_django_v2/lib/python3.7/site-packages/os_tools/modules/linux/check_user_file_permissions.py',
   'PYMODULE'),
  ('os_tools.library.linux.listify_fs_string',
   '/home/guydewinton/.local/bin/envs/full_django_v2/lib/python3.7/site-packages/os_tools/library/linux/listify_fs_string.py',
   'PYMODULE'),
  ('os_tools.library.linux',
   '/home/guydewinton/.local/bin/envs/full_django_v2/lib/python3.7/site-packages/os_tools/library/linux/__init__.py',
   'PYMODULE'),
  ('os_tools.library',
   '/home/guydewinton/.local/bin/envs/full_django_v2/lib/python3.7/site-packages/os_tools/library/__init__.py',
   'PYMODULE'),
  ('os_tools.modules.linux.get_current_user',
   '/home/guydewinton/.local/bin/envs/full_django_v2/lib/python3.7/site-packages/os_tools/modules/linux/get_current_user.py',
   'PYMODULE'),
  ('os_tools.modules.linux.get_file_dir_info',
   '/home/guydewinton/.local/bin/envs/full_django_v2/lib/python3.7/site-packages/os_tools/modules/linux/get_file_dir_info.py',
   'PYMODULE'),
  ('uuid',
   '/home/guydewinton/.local/bin/envs/full_django_v2/lib/python3.7/uuid.py',
   'PYMODULE'),
  ('ctypes.util',
   '/home/guydewinton/.local/bin/envs/full_django_v2/lib/python3.7/ctypes/util.py',
   'PYMODULE'),
  ('ctypes._aix',
   '/home/guydewinton/.local/bin/envs/full_django_v2/lib/python3.7/ctypes/_aix.py',
   'PYMODULE'),
  ('ctypes.macholib.dyld',
   '/home/guydewinton/.local/bin/envs/full_django_v2/lib/python3.7/ctypes/macholib/dyld.py',
   'PYMODULE'),
  ('ctypes.macholib',
   '/home/guydewinton/.local/bin/envs/full_django_v2/lib/python3.7/ctypes/macholib/__init__.py',
   'PYMODULE'),
  ('ctypes.macholib.dylib',
   '/home/guydewinton/.local/bin/envs/full_django_v2/lib/python3.7/ctypes/macholib/dylib.py',
   'PYMODULE'),
  ('ctypes.macholib.framework',
   '/home/guydewinton/.local/bin/envs/full_django_v2/lib/python3.7/ctypes/macholib/framework.py',
   'PYMODULE'),
  ('ctypes',
   '/home/guydewinton/.local/bin/envs/full_django_v2/lib/python3.7/ctypes/__init__.py',
   'PYMODULE'),
  ('ctypes._endian',
   '/home/guydewinton/.local/bin/envs/full_django_v2/lib/python3.7/ctypes/_endian.py',
   'PYMODULE'),
  ('src.library.helpers.observers.create_observer',
   '/home/guydewinton/Documents/DevStuff/projects/watchbot/watchbotd/src/library/helpers/observers/create_observer.py',
   'PYMODULE'),
  ('src.library.helpers.observers',
   '/home/guydewinton/Documents/DevStuff/projects/watchbot/watchbotd/src/library/helpers/observers/__init__.py',
   'PYMODULE'),
  ('src.library.helpers.schedulers.schedule_dict',
   '/home/guydewinton/Documents/DevStuff/projects/watchbot/watchbotd/src/library/helpers/schedulers/schedule_dict.py',
   'PYMODULE'),
  ('src.library.helpers.schedulers.init_scheduler',
   '/home/guydewinton/Documents/DevStuff/projects/watchbot/watchbotd/src/library/helpers/schedulers/init_scheduler.py',
   'PYMODULE'),
  ('src.library.helpers.handlers.Handler',
   '/home/guydewinton/Documents/DevStuff/projects/watchbot/watchbotd/src/library/helpers/handlers/Handler.py',
   'PYMODULE'),
  ('src.library.helpers.handlers',
   '/home/guydewinton/Documents/DevStuff/projects/watchbot/watchbotd/src/library/helpers/handlers/__init__.py',
   'PYMODULE'),
  ('watchdog.events',
   '/home/guydewinton/.local/bin/envs/full_django_v2/lib/python3.7/site-packages/watchdog/events.py',
   'PYMODULE'),
  ('watchdog.utils.unicode_paths',
   '/home/guydewinton/.local/bin/envs/full_django_v2/lib/python3.7/site-packages/watchdog/utils/unicode_paths.py',
   'PYMODULE'),
  ('watchdog.utils.platform',
   '/home/guydewinton/.local/bin/envs/full_django_v2/lib/python3.7/site-packages/watchdog/utils/platform.py',
   'PYMODULE'),
  ('watchdog.utils',
   '/home/guydewinton/.local/bin/envs/full_django_v2/lib/python3.7/site-packages/watchdog/utils/__init__.py',
   'PYMODULE'),
  ('watchdog.utils.compat',
   '/home/guydewinton/.local/bin/envs/full_django_v2/lib/python3.7/site-packages/watchdog/utils/compat.py',
   'PYMODULE'),
  ('queue',
   '/home/guydewinton/.local/bin/envs/full_django_v2/lib/python3.7/queue.py',
   'PYMODULE'),
  ('pathtools.patterns',
   '/home/guydewinton/.local/bin/envs/full_django_v2/lib/python3.7/site-packages/pathtools/patterns.py',
   'PYMODULE'),
  ('pathtools',
   '/home/guydewinton/.local/bin/envs/full_django_v2/lib/python3.7/site-packages/pathtools/__init__.py',
   'PYMODULE'),
  ('watchdog.observers',
   '/home/guydewinton/.local/bin/envs/full_django_v2/lib/python3.7/site-packages/watchdog/observers/__init__.py',
   'PYMODULE'),
  ('watchdog.observers.read_directory_changes',
   '/home/guydewinton/.local/bin/envs/full_django_v2/lib/python3.7/site-packages/watchdog/observers/read_directory_changes.py',
   'PYMODULE'),
  ('watchdog.observers.winapi',
   '/home/guydewinton/.local/bin/envs/full_django_v2/lib/python3.7/site-packages/watchdog/observers/winapi.py',
   'PYMODULE'),
  ('ctypes.wintypes',
   '/home/guydewinton/.local/bin/envs/full_django_v2/lib/python3.7/ctypes/wintypes.py',
   'PYMODULE'),
  ('watchdog.observers.api',
   '/home/guydewinton/.local/bin/envs/full_django_v2/lib/python3.7/site-packages/watchdog/observers/api.py',
   'PYMODULE'),
  ('pathlib',
   '/home/guydewinton/.local/bin/envs/full_django_v2/lib/python3.7/pathlib.py',
   'PYMODULE'),
  ('ntpath',
   '/home/guydewinton/.local/bin/envs/full_django_v2/lib/python3.7/ntpath.py',
   'PYMODULE'),
  ('watchdog.utils.bricks',
   '/home/guydewinton/.local/bin/envs/full_django_v2/lib/python3.7/site-packages/watchdog/utils/bricks.py',
   'PYMODULE'),
  ('watchdog.observers.kqueue',
   '/home/guydewinton/.local/bin/envs/full_django_v2/lib/python3.7/site-packages/watchdog/observers/kqueue.py',
   'PYMODULE'),
  ('watchdog.utils.dirsnapshot',
   '/home/guydewinton/.local/bin/envs/full_django_v2/lib/python3.7/site-packages/watchdog/utils/dirsnapshot.py',
   'PYMODULE'),
  ('pathtools.path',
   '/home/guydewinton/.local/bin/envs/full_django_v2/lib/python3.7/site-packages/pathtools/path.py',
   'PYMODULE'),
  ('watchdog.observers.fsevents',
   '/home/guydewinton/.local/bin/envs/full_django_v2/lib/python3.7/site-packages/watchdog/observers/fsevents.py',
   'PYMODULE'),
  ('watchdog.observers.polling',
   '/home/guydewinton/.local/bin/envs/full_django_v2/lib/python3.7/site-packages/watchdog/observers/polling.py',
   'PYMODULE'),
  ('watchdog.observers.inotify',
   '/home/guydewinton/.local/bin/envs/full_django_v2/lib/python3.7/site-packages/watchdog/observers/inotify.py',
   'PYMODULE'),
  ('watchdog.observers.inotify_buffer',
   '/home/guydewinton/.local/bin/envs/full_django_v2/lib/python3.7/site-packages/watchdog/observers/inotify_buffer.py',
   'PYMODULE'),
  ('watchdog.observers.inotify_c',
   '/home/guydewinton/.local/bin/envs/full_django_v2/lib/python3.7/site-packages/watchdog/observers/inotify_c.py',
   'PYMODULE'),
  ('watchdog.utils.delayed_queue',
   '/home/guydewinton/.local/bin/envs/full_django_v2/lib/python3.7/site-packages/watchdog/utils/delayed_queue.py',
   'PYMODULE'),
  ('watchdog',
   '/home/guydewinton/.local/bin/envs/full_django_v2/lib/python3.7/site-packages/watchdog/__init__.py',
   'PYMODULE'),
  ('src.library.helpers.schedulers',
   '/home/guydewinton/Documents/DevStuff/projects/watchbot/watchbotd/src/library/helpers/schedulers/__init__.py',
   'PYMODULE'),
  ('config',
   '/home/guydewinton/Documents/DevStuff/projects/watchbot/installer/lib/config.py',
   'PYMODULE'),
  ('db_schema',
   '/home/guydewinton/Documents/DevStuff/projects/watchbot/installer/lib/db_schema.py',
   'PYMODULE'),
  ('sqlite3_api.base_class',
   '/home/guydewinton/.local/bin/envs/full_django_v2/lib/python3.7/site-packages/sqlite3_api/base_class.py',
   'PYMODULE'),
  ('constants.constants',
   '/home/guydewinton/.local/bin/envs/full_django_v2/lib/python3.7/site-packages/sqlite3_api/constants/constants.py',
   'PYMODULE'),
  ('constants',
   '/home/guydewinton/.local/bin/envs/full_django_v2/lib/python3.7/site-packages/sqlite3_api/constants/__init__.py',
   'PYMODULE'),
  ('query.query_factory',
   '/home/guydewinton/.local/bin/envs/full_django_v2/lib/python3.7/site-packages/sqlite3_api/query/query_factory.py',
   'PYMODULE'),
  ('sqlite3_api.api.sqlite_api',
   '/home/guydewinton/.local/bin/envs/full_django_v2/lib/python3.7/site-packages/sqlite3_api/api/sqlite_api.py',
   'PYMODULE'),
  ('sqlite3_api.api',
   '/home/guydewinton/.local/bin/envs/full_django_v2/lib/python3.7/site-packages/sqlite3_api/api/__init__.py',
   'PYMODULE'),
  ('sqlite3',
   '/home/guydewinton/.local/bin/envs/full_django_v2/lib/python3.7/sqlite3/__init__.py',
   'PYMODULE'),
  ('sqlite3.dump',
   '/home/guydewinton/.local/bin/envs/full_django_v2/lib/python3.7/sqlite3/dump.py',
   'PYMODULE'),
  ('sqlite3.dbapi2',
   '/home/guydewinton/.local/bin/envs/full_django_v2/lib/python3.7/sqlite3/dbapi2.py',
   'PYMODULE'),
  ('query.query_strings',
   '/home/guydewinton/.local/bin/envs/full_django_v2/lib/python3.7/site-packages/sqlite3_api/query/query_strings.py',
   'PYMODULE'),
  ('query',
   '/home/guydewinton/.local/bin/envs/full_django_v2/lib/python3.7/site-packages/sqlite3_api/query/__init__.py',
   'PYMODULE'),
  ('helpers.helpers',
   '/home/guydewinton/.local/bin/envs/full_django_v2/lib/python3.7/site-packages/sqlite3_api/helpers/helpers.py',
   'PYMODULE'),
  ('helpers',
   '/home/guydewinton/.local/bin/envs/full_django_v2/lib/python3.7/site-packages/sqlite3_api/helpers/__init__.py',
   'PYMODULE'),
  ('src.library.helpers.data.user_process',
   '/home/guydewinton/Documents/DevStuff/projects/watchbot/watchbotd/src/library/helpers/data/user_process.py',
   'PYMODULE'),
  ('src.library.helpers.data.filter_list_by_user',
   '/home/guydewinton/Documents/DevStuff/projects/watchbot/watchbotd/src/library/helpers/data/filter_list_by_user.py',
   'PYMODULE'),
  ('src.library.helpers.console.print_list',
   '/home/guydewinton/Documents/DevStuff/projects/watchbot/watchbotd/src/library/helpers/console/print_list.py',
   'PYMODULE'),
  ('src.library.helpers.console',
   '/home/guydewinton/Documents/DevStuff/projects/watchbot/watchbotd/src/library/helpers/console/__init__.py',
   'PYMODULE'),
  ('src.modules.watchtrigger_del_all.watchtrigger_del_all_cli_router',
   '/home/guydewinton/Documents/DevStuff/projects/watchbot/watchbotd/src/modules/watchtrigger_del_all/watchtrigger_del_all_cli_router.py',
   'PYMODULE'),
  ('src.modules.watchtrigger_del_all',
   '/home/guydewinton/Documents/DevStuff/projects/watchbot/watchbotd/src/modules/watchtrigger_del_all/__init__.py',
   'PYMODULE'),
  ('src.modules.watchtrigger_del.watchtrigger_del_cli_router',
   '/home/guydewinton/Documents/DevStuff/projects/watchbot/watchbotd/src/modules/watchtrigger_del/watchtrigger_del_cli_router.py',
   'PYMODULE'),
  ('src.modules.watchtrigger_del',
   '/home/guydewinton/Documents/DevStuff/projects/watchbot/watchbotd/src/modules/watchtrigger_del/__init__.py',
   'PYMODULE'),
  ('src.modules.watchtrigger.watchtrigger_cli_router',
   '/home/guydewinton/Documents/DevStuff/projects/watchbot/watchbotd/src/modules/watchtrigger/watchtrigger_cli_router.py',
   'PYMODULE'),
  ('src.modules.watchtrigger',
   '/home/guydewinton/Documents/DevStuff/projects/watchbot/watchbotd/src/modules/watchtrigger/__init__.py',
   'PYMODULE'),
  ('src.modules.watch_list.watch_list_cli_router',
   '/home/guydewinton/Documents/DevStuff/projects/watchbot/watchbotd/src/modules/watch_list/watch_list_cli_router.py',
   'PYMODULE'),
  ('src.modules.watch_list',
   '/home/guydewinton/Documents/DevStuff/projects/watchbot/watchbotd/src/modules/watch_list/__init__.py',
   'PYMODULE'),
  ('src.modules.watch_del_all.watch_del_all_cli_router',
   '/home/guydewinton/Documents/DevStuff/projects/watchbot/watchbotd/src/modules/watch_del_all/watch_del_all_cli_router.py',
   'PYMODULE'),
  ('src.modules.watch_del_all',
   '/home/guydewinton/Documents/DevStuff/projects/watchbot/watchbotd/src/modules/watch_del_all/__init__.py',
   'PYMODULE'),
  ('src.modules.watch_del.watch_del_cli_router',
   '/home/guydewinton/Documents/DevStuff/projects/watchbot/watchbotd/src/modules/watch_del/watch_del_cli_router.py',
   'PYMODULE'),
  ('src.modules.watch_del',
   '/home/guydewinton/Documents/DevStuff/projects/watchbot/watchbotd/src/modules/watch_del/__init__.py',
   'PYMODULE'),
  ('src.modules.watch.watch_cli_router',
   '/home/guydewinton/Documents/DevStuff/projects/watchbot/watchbotd/src/modules/watch/watch_cli_router.py',
   'PYMODULE'),
  ('src.modules.watch',
   '/home/guydewinton/Documents/DevStuff/projects/watchbot/watchbotd/src/modules/watch/__init__.py',
   'PYMODULE'),
  ('src.modules.trigger_list.trigger_list_cli_router',
   '/home/guydewinton/Documents/DevStuff/projects/watchbot/watchbotd/src/modules/trigger_list/trigger_list_cli_router.py',
   'PYMODULE'),
  ('src.modules.trigger_list',
   '/home/guydewinton/Documents/DevStuff/projects/watchbot/watchbotd/src/modules/trigger_list/__init__.py',
   'PYMODULE'),
  ('src.modules.trigger_del_all.trigger_del_all_cli_router',
   '/home/guydewinton/Documents/DevStuff/projects/watchbot/watchbotd/src/modules/trigger_del_all/trigger_del_all_cli_router.py',
   'PYMODULE'),
  ('src.modules.trigger_del_all',
   '/home/guydewinton/Documents/DevStuff/projects/watchbot/watchbotd/src/modules/trigger_del_all/__init__.py',
   'PYMODULE'),
  ('src.modules.trigger_del.trigger_del_cli_router',
   '/home/guydewinton/Documents/DevStuff/projects/watchbot/watchbotd/src/modules/trigger_del/trigger_del_cli_router.py',
   'PYMODULE'),
  ('src.modules.trigger_del',
   '/home/guydewinton/Documents/DevStuff/projects/watchbot/watchbotd/src/modules/trigger_del/__init__.py',
   'PYMODULE'),
  ('src.modules.trigger.trigger_cli_router',
   '/home/guydewinton/Documents/DevStuff/projects/watchbot/watchbotd/src/modules/trigger/trigger_cli_router.py',
   'PYMODULE'),
  ('src.modules.trigger',
   '/home/guydewinton/Documents/DevStuff/projects/watchbot/watchbotd/src/modules/trigger/__init__.py',
   'PYMODULE'),
  ('src.modules.status.status_cli_router',
   '/home/guydewinton/Documents/DevStuff/projects/watchbot/watchbotd/src/modules/status/status_cli_router.py',
   'PYMODULE'),
  ('src.modules.status',
   '/home/guydewinton/Documents/DevStuff/projects/watchbot/watchbotd/src/modules/status/__init__.py',
   'PYMODULE'),
  ('src.modules.log_del.log_del_cli_router',
   '/home/guydewinton/Documents/DevStuff/projects/watchbot/watchbotd/src/modules/log_del/log_del_cli_router.py',
   'PYMODULE'),
  ('src.modules.log_del',
   '/home/guydewinton/Documents/DevStuff/projects/watchbot/watchbotd/src/modules/log_del/__init__.py',
   'PYMODULE'),
  ('src.modules.log.log_cli_router',
   '/home/guydewinton/Documents/DevStuff/projects/watchbot/watchbotd/src/modules/log/log_cli_router.py',
   'PYMODULE'),
  ('src.modules.log',
   '/home/guydewinton/Documents/DevStuff/projects/watchbot/watchbotd/src/modules/log/__init__.py',
   'PYMODULE'),
  ('src.modules.json.json_cli_router',
   '/home/guydewinton/Documents/DevStuff/projects/watchbot/watchbotd/src/modules/json/json_cli_router.py',
   'PYMODULE'),
  ('src.modules.json',
   '/home/guydewinton/Documents/DevStuff/projects/watchbot/watchbotd/src/modules/json/__init__.py',
   'PYMODULE'),
  ('src.modules.import_json.import_cli_router',
   '/home/guydewinton/Documents/DevStuff/projects/watchbot/watchbotd/src/modules/import_json/import_cli_router.py',
   'PYMODULE'),
  ('src.modules.import_json',
   '/home/guydewinton/Documents/DevStuff/projects/watchbot/watchbotd/src/modules/import_json/__init__.py',
   'PYMODULE'),
  ('src.modules.del_all.del_all_cli_router',
   '/home/guydewinton/Documents/DevStuff/projects/watchbot/watchbotd/src/modules/del_all/del_all_cli_router.py',
   'PYMODULE'),
  ('src.modules.del_all',
   '/home/guydewinton/Documents/DevStuff/projects/watchbot/watchbotd/src/modules/del_all/__init__.py',
   'PYMODULE'),
  ('src.library.classes.ArgClass',
   '/home/guydewinton/Documents/DevStuff/projects/watchbot/watchbotd/src/library/classes/ArgClass.py',
   'PYMODULE'),
  ('src.library.classes',
   '/home/guydewinton/Documents/DevStuff/projects/watchbot/watchbotd/src/library/classes/__init__.py',
   'PYMODULE'),
  ('cryptography.hazmat.primitives.serialization',
   '/home/guydewinton/.local/bin/envs/full_django_v2/lib/python3.7/site-packages/cryptography/hazmat/primitives/serialization/__init__.py',
   'PYMODULE'),
  ('cryptography.hazmat.primitives.serialization.ssh',
   '/home/guydewinton/.local/bin/envs/full_django_v2/lib/python3.7/site-packages/cryptography/hazmat/primitives/serialization/ssh.py',
   'PYMODULE'),
  ('cryptography.hazmat.primitives.ciphers.modes',
   '/home/guydewinton/.local/bin/envs/full_django_v2/lib/python3.7/site-packages/cryptography/hazmat/primitives/ciphers/modes.py',
   'PYMODULE'),
  ('cryptography.hazmat.primitives.ciphers.algorithms',
   '/home/guydewinton/.local/bin/envs/full_django_v2/lib/python3.7/site-packages/cryptography/hazmat/primitives/ciphers/algorithms.py',
   'PYMODULE'),
  ('cryptography.hazmat.primitives.ciphers',
   '/home/guydewinton/.local/bin/envs/full_django_v2/lib/python3.7/site-packages/cryptography/hazmat/primitives/ciphers/__init__.py',
   'PYMODULE'),
  ('cryptography.hazmat.primitives.ciphers.base',
   '/home/guydewinton/.local/bin/envs/full_django_v2/lib/python3.7/site-packages/cryptography/hazmat/primitives/ciphers/base.py',
   'PYMODULE'),
  ('cryptography.hazmat.backends.interfaces',
   '/home/guydewinton/.local/bin/envs/full_django_v2/lib/python3.7/site-packages/cryptography/hazmat/backends/interfaces.py',
   'PYMODULE'),
  ('cryptography.hazmat.primitives.asymmetric.rsa',
   '/home/guydewinton/.local/bin/envs/full_django_v2/lib/python3.7/site-packages/cryptography/hazmat/primitives/asymmetric/rsa.py',
   'PYMODULE'),
  ('fractions',
   '/home/guydewinton/.local/bin/envs/full_django_v2/lib/python3.7/fractions.py',
   'PYMODULE'),
  ('numbers',
   '/home/guydewinton/.local/bin/envs/full_django_v2/lib/python3.7/numbers.py',
   'PYMODULE'),
  ('decimal',
   '/home/guydewinton/.local/bin/envs/full_django_v2/lib/python3.7/decimal.py',
   'PYMODULE'),
  ('_pydecimal',
   '/home/guydewinton/.local/bin/envs/full_django_v2/lib/python3.7/_pydecimal.py',
   'PYMODULE'),
  ('contextvars',
   '/home/guydewinton/.local/bin/envs/full_django_v2/lib/python3.7/contextvars.py',
   'PYMODULE'),
  ('cryptography.hazmat.primitives.asymmetric.ed25519',
   '/home/guydewinton/.local/bin/envs/full_django_v2/lib/python3.7/site-packages/cryptography/hazmat/primitives/asymmetric/ed25519.py',
   'PYMODULE'),
  ('cryptography.hazmat.backends.openssl.backend',
   '/home/guydewinton/.local/bin/envs/full_django_v2/lib/python3.7/site-packages/cryptography/hazmat/backends/openssl/backend.py',
   'PYMODULE'),
  ('cryptography.x509.ocsp',
   '/home/guydewinton/.local/bin/envs/full_django_v2/lib/python3.7/site-packages/cryptography/x509/ocsp.py',
   'PYMODULE'),
  ('cryptography.x509.base',
   '/home/guydewinton/.local/bin/envs/full_django_v2/lib/python3.7/site-packages/cryptography/x509/base.py',
   'PYMODULE'),
  ('cryptography.x509.oid',
   '/home/guydewinton/.local/bin/envs/full_django_v2/lib/python3.7/site-packages/cryptography/x509/oid.py',
   'PYMODULE'),
  ('cryptography.hazmat._oid',
   '/home/guydewinton/.local/bin/envs/full_django_v2/lib/python3.7/site-packages/cryptography/hazmat/_oid.py',
   'PYMODULE'),
  ('cryptography.hazmat',
   '/home/guydewinton/.local/bin/envs/full_django_v2/lib/python3.7/site-packages/cryptography/hazmat/__init__.py',
   'PYMODULE'),
  ('cryptography.x509.name',
   '/home/guydewinton/.local/bin/envs/full_django_v2/lib/python3.7/site-packages/cryptography/x509/name.py',
   'PYMODULE'),
  ('cryptography.x509.extensions',
   '/home/guydewinton/.local/bin/envs/full_django_v2/lib/python3.7/site-packages/cryptography/x509/extensions.py',
   'PYMODULE'),
  ('cryptography.x509.general_name',
   '/home/guydewinton/.local/bin/envs/full_django_v2/lib/python3.7/site-packages/cryptography/x509/general_name.py',
   'PYMODULE'),
  ('cryptography.x509.certificate_transparency',
   '/home/guydewinton/.local/bin/envs/full_django_v2/lib/python3.7/site-packages/cryptography/x509/certificate_transparency.py',
   'PYMODULE'),
  ('cryptography.hazmat.primitives.constant_time',
   '/home/guydewinton/.local/bin/envs/full_django_v2/lib/python3.7/site-packages/cryptography/hazmat/primitives/constant_time.py',
   'PYMODULE'),
  ('hmac',
   '/home/guydewinton/.local/bin/envs/full_django_v2/lib/python3.7/hmac.py',
   'PYMODULE'),
  ('ipaddress',
   '/home/guydewinton/.local/bin/envs/full_django_v2/lib/python3.7/ipaddress.py',
   'PYMODULE'),
  ('cryptography.hazmat.primitives.kdf.scrypt',
   '/home/guydewinton/.local/bin/envs/full_django_v2/lib/python3.7/site-packages/cryptography/hazmat/primitives/kdf/scrypt.py',
   'PYMODULE'),
  ('cryptography.hazmat.primitives.kdf',
   '/home/guydewinton/.local/bin/envs/full_django_v2/lib/python3.7/site-packages/cryptography/hazmat/primitives/kdf/__init__.py',
   'PYMODULE'),
  ('cryptography.hazmat.primitives.asymmetric.ed448',
   '/home/guydewinton/.local/bin/envs/full_django_v2/lib/python3.7/site-packages/cryptography/hazmat/primitives/asymmetric/ed448.py',
   'PYMODULE'),
  ('cryptography.hazmat.bindings.openssl.binding',
   '/home/guydewinton/.local/bin/envs/full_django_v2/lib/python3.7/site-packages/cryptography/hazmat/bindings/openssl/binding.py',
   'PYMODULE'),
  ('cryptography.hazmat.bindings.openssl._conditional',
   '/home/guydewinton/.local/bin/envs/full_django_v2/lib/python3.7/site-packages/cryptography/hazmat/bindings/openssl/_conditional.py',
   'PYMODULE'),
  ('cryptography.hazmat.bindings',
   '/home/guydewinton/.local/bin/envs/full_django_v2/lib/python3.7/site-packages/cryptography/hazmat/bindings/__init__.py',
   'PYMODULE'),
  ('cryptography.hazmat.bindings.openssl',
   '/home/guydewinton/.local/bin/envs/full_django_v2/lib/python3.7/site-packages/cryptography/hazmat/bindings/openssl/__init__.py',
   'PYMODULE'),
  ('cryptography.hazmat.backends.openssl.x509',
   '/home/guydewinton/.local/bin/envs/full_django_v2/lib/python3.7/site-packages/cryptography/hazmat/backends/openssl/x509.py',
   'PYMODULE'),
  ('cryptography.hazmat.backends.openssl.x448',
   '/home/guydewinton/.local/bin/envs/full_django_v2/lib/python3.7/site-packages/cryptography/hazmat/backends/openssl/x448.py',
   'PYMODULE'),
  ('cryptography.hazmat.primitives.asymmetric.x448',
   '/home/guydewinton/.local/bin/envs/full_django_v2/lib/python3.7/site-packages/cryptography/hazmat/primitives/asymmetric/x448.py',
   'PYMODULE'),
  ('cryptography.hazmat.backends.openssl.utils',
   '/home/guydewinton/.local/bin/envs/full_django_v2/lib/python3.7/site-packages/cryptography/hazmat/backends/openssl/utils.py',
   'PYMODULE'),
  ('cryptography.hazmat.primitives.asymmetric.utils',
   '/home/guydewinton/.local/bin/envs/full_django_v2/lib/python3.7/site-packages/cryptography/hazmat/primitives/asymmetric/utils.py',
   'PYMODULE'),
  ('cryptography.hazmat.backends.openssl.x25519',
   '/home/guydewinton/.local/bin/envs/full_django_v2/lib/python3.7/site-packages/cryptography/hazmat/backends/openssl/x25519.py',
   'PYMODULE'),
  ('cryptography.hazmat.primitives.asymmetric.x25519',
   '/home/guydewinton/.local/bin/envs/full_django_v2/lib/python3.7/site-packages/cryptography/hazmat/primitives/asymmetric/x25519.py',
   'PYMODULE'),
  ('cryptography.hazmat.backends.openssl.rsa',
   '/home/guydewinton/.local/bin/envs/full_django_v2/lib/python3.7/site-packages/cryptography/hazmat/backends/openssl/rsa.py',
   'PYMODULE'),
  ('cryptography.hazmat.backends.openssl.poly1305',
   '/home/guydewinton/.local/bin/envs/full_django_v2/lib/python3.7/site-packages/cryptography/hazmat/backends/openssl/poly1305.py',
   'PYMODULE'),
  ('cryptography.hazmat.backends.openssl.ocsp',
   '/home/guydewinton/.local/bin/envs/full_django_v2/lib/python3.7/site-packages/cryptography/hazmat/backends/openssl/ocsp.py',
   'PYMODULE'),
  ('cryptography.hazmat.backends.openssl.hmac',
   '/home/guydewinton/.local/bin/envs/full_django_v2/lib/python3.7/site-packages/cryptography/hazmat/backends/openssl/hmac.py',
   'PYMODULE'),
  ('cryptography.hazmat.backends.openssl.hashes',
   '/home/guydewinton/.local/bin/envs/full_django_v2/lib/python3.7/site-packages/cryptography/hazmat/backends/openssl/hashes.py',
   'PYMODULE'),
  ('cryptography.hazmat.backends.openssl.encode_asn1',
   '/home/guydewinton/.local/bin/envs/full_django_v2/lib/python3.7/site-packages/cryptography/hazmat/backends/openssl/encode_asn1.py',
   'PYMODULE'),
  ('cryptography.hazmat.backends.openssl.ed448',
   '/home/guydewinton/.local/bin/envs/full_django_v2/lib/python3.7/site-packages/cryptography/hazmat/backends/openssl/ed448.py',
   'PYMODULE'),
  ('cryptography.hazmat.backends.openssl.ed25519',
   '/home/guydewinton/.local/bin/envs/full_django_v2/lib/python3.7/site-packages/cryptography/hazmat/backends/openssl/ed25519.py',
   'PYMODULE'),
  ('cryptography.hazmat.backends.openssl.ec',
   '/home/guydewinton/.local/bin/envs/full_django_v2/lib/python3.7/site-packages/cryptography/hazmat/backends/openssl/ec.py',
   'PYMODULE'),
  ('cryptography.hazmat.backends.openssl.dsa',
   '/home/guydewinton/.local/bin/envs/full_django_v2/lib/python3.7/site-packages/cryptography/hazmat/backends/openssl/dsa.py',
   'PYMODULE'),
  ('cryptography.hazmat.backends.openssl.dh',
   '/home/guydewinton/.local/bin/envs/full_django_v2/lib/python3.7/site-packages/cryptography/hazmat/backends/openssl/dh.py',
   'PYMODULE'),
  ('cryptography.hazmat.primitives.asymmetric.dh',
   '/home/guydewinton/.local/bin/envs/full_django_v2/lib/python3.7/site-packages/cryptography/hazmat/primitives/asymmetric/dh.py',
   'PYMODULE'),
  ('cryptography.hazmat.backends.openssl.decode_asn1',
   '/home/guydewinton/.local/bin/envs/full_django_v2/lib/python3.7/site-packages/cryptography/hazmat/backends/openssl/decode_asn1.py',
   'PYMODULE'),
  ('cryptography.hazmat.backends.openssl.cmac',
   '/home/guydewinton/.local/bin/envs/full_django_v2/lib/python3.7/site-packages/cryptography/hazmat/backends/openssl/cmac.py',
   'PYMODULE'),
  ('cryptography.hazmat.backends.openssl.ciphers',
   '/home/guydewinton/.local/bin/envs/full_django_v2/lib/python3.7/site-packages/cryptography/hazmat/backends/openssl/ciphers.py',
   'PYMODULE'),
  ('cryptography.hazmat.backends.openssl.aead',
   '/home/guydewinton/.local/bin/envs/full_django_v2/lib/python3.7/site-packages/cryptography/hazmat/backends/openssl/aead.py',
   'PYMODULE'),
  ('cryptography.hazmat.primitives.ciphers.aead',
   '/home/guydewinton/.local/bin/envs/full_django_v2/lib/python3.7/site-packages/cryptography/hazmat/primitives/ciphers/aead.py',
   'PYMODULE'),
  ('cryptography.hazmat._der',
   '/home/guydewinton/.local/bin/envs/full_django_v2/lib/python3.7/site-packages/cryptography/hazmat/_der.py',
   'PYMODULE'),
  ('cryptography.x509',
   '/home/guydewinton/.local/bin/envs/full_django_v2/lib/python3.7/site-packages/cryptography/x509/__init__.py',
   'PYMODULE'),
  ('cryptography.hazmat.backends.openssl',
   '/home/guydewinton/.local/bin/envs/full_django_v2/lib/python3.7/site-packages/cryptography/hazmat/backends/openssl/__init__.py',
   'PYMODULE'),
  ('cryptography.hazmat.primitives.asymmetric.ec',
   '/home/guydewinton/.local/bin/envs/full_django_v2/lib/python3.7/site-packages/cryptography/hazmat/primitives/asymmetric/ec.py',
   'PYMODULE'),
  ('cryptography.hazmat.primitives.asymmetric.dsa',
   '/home/guydewinton/.local/bin/envs/full_django_v2/lib/python3.7/site-packages/cryptography/hazmat/primitives/asymmetric/dsa.py',
   'PYMODULE'),
  ('cryptography.hazmat.backends',
   '/home/guydewinton/.local/bin/envs/full_django_v2/lib/python3.7/site-packages/cryptography/hazmat/backends/__init__.py',
   'PYMODULE'),
  ('cryptography.exceptions',
   '/home/guydewinton/.local/bin/envs/full_django_v2/lib/python3.7/site-packages/cryptography/exceptions.py',
   'PYMODULE'),
  ('cryptography.utils',
   '/home/guydewinton/.local/bin/envs/full_django_v2/lib/python3.7/site-packages/cryptography/utils.py',
   'PYMODULE'),
  ('cryptography',
   '/home/guydewinton/.local/bin/envs/full_django_v2/lib/python3.7/site-packages/cryptography/__init__.py',
   'PYMODULE'),
  ('cryptography.__about__',
   '/home/guydewinton/.local/bin/envs/full_django_v2/lib/python3.7/site-packages/cryptography/__about__.py',
   'PYMODULE'),
  ('six',
   '/home/guydewinton/.local/bin/envs/full_django_v2/lib/python3.7/site-packages/six.py',
   'PYMODULE'),
  ('cryptography.hazmat.primitives.serialization.base',
   '/home/guydewinton/.local/bin/envs/full_django_v2/lib/python3.7/site-packages/cryptography/hazmat/primitives/serialization/base.py',
   'PYMODULE'),
  ('cryptography.hazmat.primitives.asymmetric.padding',
   '/home/guydewinton/.local/bin/envs/full_django_v2/lib/python3.7/site-packages/cryptography/hazmat/primitives/asymmetric/padding.py',
   'PYMODULE'),
  ('cryptography.hazmat.primitives.asymmetric',
   '/home/guydewinton/.local/bin/envs/full_django_v2/lib/python3.7/site-packages/cryptography/hazmat/primitives/asymmetric/__init__.py',
   'PYMODULE'),
  ('cryptography.hazmat.primitives.hashes',
   '/home/guydewinton/.local/bin/envs/full_django_v2/lib/python3.7/site-packages/cryptography/hazmat/primitives/hashes.py',
   'PYMODULE'),
  ('cryptography.hazmat.primitives',
   '/home/guydewinton/.local/bin/envs/full_django_v2/lib/python3.7/site-packages/cryptography/hazmat/primitives/__init__.py',
   'PYMODULE'),
  ('cryptography.hazmat.primitives.padding',
   '/home/guydewinton/.local/bin/envs/full_django_v2/lib/python3.7/site-packages/cryptography/hazmat/primitives/padding.py',
   'PYMODULE'),
  ('cryptography.fernet',
   '/home/guydewinton/.local/bin/envs/full_django_v2/lib/python3.7/site-packages/cryptography/fernet.py',
   'PYMODULE'),
  ('cryptography.hazmat.primitives.hmac',
   '/home/guydewinton/.local/bin/envs/full_django_v2/lib/python3.7/site-packages/cryptography/hazmat/primitives/hmac.py',
   'PYMODULE'),
  ('json',
   '/home/guydewinton/.local/bin/envs/full_django_v2/lib/python3.7/json/__init__.py',
   'PYMODULE'),
  ('json.encoder',
   '/home/guydewinton/.local/bin/envs/full_django_v2/lib/python3.7/json/encoder.py',
   'PYMODULE'),
  ('json.decoder',
   '/home/guydewinton/.local/bin/envs/full_django_v2/lib/python3.7/json/decoder.py',
   'PYMODULE'),
  ('json.scanner',
   '/home/guydewinton/.local/bin/envs/full_django_v2/lib/python3.7/json/scanner.py',
   'PYMODULE'),
  ('src.library.helpers.queuing.watchbot_queue',
   '/home/guydewinton/Documents/DevStuff/projects/watchbot/watchbotd/src/library/helpers/queuing/watchbot_queue.py',
   'PYMODULE'),
  ('src.library.helpers.queuing',
   '/home/guydewinton/Documents/DevStuff/projects/watchbot/watchbotd/src/library/helpers/queuing/__init__.py',
   'PYMODULE'),
  ('src.library.helpers.queuing.process_queue',
   '/home/guydewinton/Documents/DevStuff/projects/watchbot/watchbotd/src/library/helpers/queuing/process_queue.py',
   'PYMODULE'),
  ('src.library.helpers.scripts.execute_trigger_command',
   '/home/guydewinton/Documents/DevStuff/projects/watchbot/watchbotd/src/library/helpers/scripts/execute_trigger_command.py',
   'PYMODULE'),
  ('src.library.helpers.scripts',
   '/home/guydewinton/Documents/DevStuff/projects/watchbot/watchbotd/src/library/helpers/scripts/__init__.py',
   'PYMODULE'),
  ('src.library.helpers.observers.init_observer',
   '/home/guydewinton/Documents/DevStuff/projects/watchbot/watchbotd/src/library/helpers/observers/init_observer.py',
   'PYMODULE'),
  ('src.library.helpers.observers.close_observer',
   '/home/guydewinton/Documents/DevStuff/projects/watchbot/watchbotd/src/library/helpers/observers/close_observer.py',
   'PYMODULE'),
  ('threading',
   '/home/guydewinton/.local/bin/envs/full_django_v2/lib/python3.7/threading.py',
   'PYMODULE'),
  ('_threading_local',
   '/home/guydewinton/.local/bin/envs/full_django_v2/lib/python3.7/_threading_local.py',
   'PYMODULE'),
  ('os',
   '/home/guydewinton/.local/bin/envs/full_django_v2/lib/python3.7/os.py',
   'PYMODULE')])
