('/home/guydewinton/Documents/DevStuff/projects/watchbot/installer/package/work/install_watchbot/PYZ-00.pyz',
 [('copy',
   '/home/guydewinton/.local/bin/envs/full_django_v2/lib/python3.7/copy.py',
   'PYMODULE'),
  ('tokenize',
   '/home/guydewinton/.local/bin/envs/full_django_v2/lib/python3.7/tokenize.py',
   'PYMODULE'),
  ('argparse',
   '/home/guydewinton/.local/bin/envs/full_django_v2/lib/python3.7/argparse.py',
   'PYMODULE'),
  ('textwrap',
   '/home/guydewinton/.local/bin/envs/full_django_v2/lib/python3.7/textwrap.py',
   'PYMODULE'),
  ('gettext',
   '/home/guydewinton/.local/bin/envs/full_django_v2/lib/python3.7/gettext.py',
   'PYMODULE'),
  ('struct',
   '/home/guydewinton/.local/bin/envs/full_django_v2/lib/python3.7/struct.py',
   'PYMODULE'),
  ('token',
   '/home/guydewinton/.local/bin/envs/full_django_v2/lib/python3.7/token.py',
   'PYMODULE'),
  ('typing',
   '/home/guydewinton/.local/bin/envs/full_django_v2/lib/python3.7/typing.py',
   'PYMODULE'),
  ('contextlib',
   '/home/guydewinton/.local/bin/envs/full_django_v2/lib/python3.7/contextlib.py',
   'PYMODULE'),
  ('_strptime',
   '/home/guydewinton/.local/bin/envs/full_django_v2/lib/python3.7/_strptime.py',
   'PYMODULE'),
  ('datetime',
   '/home/guydewinton/.local/bin/envs/full_django_v2/lib/python3.7/datetime.py',
   'PYMODULE'),
  ('calendar',
   '/home/guydewinton/.local/bin/envs/full_django_v2/lib/python3.7/calendar.py',
   'PYMODULE'),
  ('quopri',
   '/home/guydewinton/.local/bin/envs/full_django_v2/lib/python3.7/quopri.py',
   'PYMODULE'),
  ('getopt',
   '/home/guydewinton/.local/bin/envs/full_django_v2/lib/python3.7/getopt.py',
   'PYMODULE'),
  ('stringprep',
   '/home/guydewinton/.local/bin/envs/full_django_v2/lib/python3.7/stringprep.py',
   'PYMODULE'),
  ('bz2',
   '/home/guydewinton/.local/bin/envs/full_django_v2/lib/python3.7/bz2.py',
   'PYMODULE'),
  ('threading',
   '/home/guydewinton/.local/bin/envs/full_django_v2/lib/python3.7/threading.py',
   'PYMODULE'),
  ('_threading_local',
   '/home/guydewinton/.local/bin/envs/full_django_v2/lib/python3.7/_threading_local.py',
   'PYMODULE'),
  ('_compression',
   '/home/guydewinton/.local/bin/envs/full_django_v2/lib/python3.7/_compression.py',
   'PYMODULE'),
  ('base64',
   '/home/guydewinton/.local/bin/envs/full_django_v2/lib/python3.7/base64.py',
   'PYMODULE'),
  ('_py_abc',
   '/home/guydewinton/.local/bin/envs/full_django_v2/lib/python3.7/_py_abc.py',
   'PYMODULE'),
  ('tracemalloc',
   '/home/guydewinton/.local/bin/envs/full_django_v2/lib/python3.7/tracemalloc.py',
   'PYMODULE'),
  ('pickle',
   '/home/guydewinton/.local/bin/envs/full_django_v2/lib/python3.7/pickle.py',
   'PYMODULE'),
  ('pprint',
   '/home/guydewinton/.local/bin/envs/full_django_v2/lib/python3.7/pprint.py',
   'PYMODULE'),
  ('doctest',
   '/home/guydewinton/.local/bin/envs/full_django_v2/lib/python3.7/doctest.py',
   'PYMODULE'),
  ('unittest',
   '/home/guydewinton/.local/bin/envs/full_django_v2/lib/python3.7/unittest/__init__.py',
   'PYMODULE'),
  ('unittest.signals',
   '/home/guydewinton/.local/bin/envs/full_django_v2/lib/python3.7/unittest/signals.py',
   'PYMODULE'),
  ('signal',
   '/home/guydewinton/.local/bin/envs/full_django_v2/lib/python3.7/signal.py',
   'PYMODULE'),
  ('unittest.main',
   '/home/guydewinton/.local/bin/envs/full_django_v2/lib/python3.7/unittest/main.py',
   'PYMODULE'),
  ('unittest.runner',
   '/home/guydewinton/.local/bin/envs/full_django_v2/lib/python3.7/unittest/runner.py',
   'PYMODULE'),
  ('unittest.loader',
   '/home/guydewinton/.local/bin/envs/full_django_v2/lib/python3.7/unittest/loader.py',
   'PYMODULE'),
  ('unittest.suite',
   '/home/guydewinton/.local/bin/envs/full_django_v2/lib/python3.7/unittest/suite.py',
   'PYMODULE'),
  ('unittest.case',
   '/home/guydewinton/.local/bin/envs/full_django_v2/lib/python3.7/unittest/case.py',
   'PYMODULE'),
  ('logging',
   '/home/guydewinton/.local/bin/envs/full_django_v2/lib/python3.7/logging/__init__.py',
   'PYMODULE'),
  ('string',
   '/home/guydewinton/.local/bin/envs/full_django_v2/lib/python3.7/string.py',
   'PYMODULE'),
  ('unittest.result',
   '/home/guydewinton/.local/bin/envs/full_django_v2/lib/python3.7/unittest/result.py',
   'PYMODULE'),
  ('unittest.util',
   '/home/guydewinton/.local/bin/envs/full_django_v2/lib/python3.7/unittest/util.py',
   'PYMODULE'),
  ('pdb',
   '/home/guydewinton/.local/bin/envs/full_django_v2/lib/python3.7/pdb.py',
   'PYMODULE'),
  ('pydoc',
   '/home/guydewinton/.local/bin/envs/full_django_v2/lib/python3.7/pydoc.py',
   'PYMODULE'),
  ('webbrowser',
   '/home/guydewinton/.local/bin/envs/full_django_v2/lib/python3.7/webbrowser.py',
   'PYMODULE'),
  ('socket',
   '/home/guydewinton/.local/bin/envs/full_django_v2/lib/python3.7/socket.py',
   'PYMODULE'),
  ('selectors',
   '/home/guydewinton/.local/bin/envs/full_django_v2/lib/python3.7/selectors.py',
   'PYMODULE'),
  ('shutil',
   '/home/guydewinton/.local/bin/envs/full_django_v2/lib/python3.7/shutil.py',
   'PYMODULE'),
  ('zipfile',
   '/home/guydewinton/.local/bin/envs/full_django_v2/lib/python3.7/zipfile.py',
   'PYMODULE'),
  ('py_compile',
   '/home/guydewinton/.local/bin/envs/full_django_v2/lib/python3.7/py_compile.py',
   'PYMODULE'),
  ('tarfile',
   '/home/guydewinton/.local/bin/envs/full_django_v2/lib/python3.7/tarfile.py',
   'PYMODULE'),
  ('gzip',
   '/home/guydewinton/.local/bin/envs/full_django_v2/lib/python3.7/gzip.py',
   'PYMODULE'),
  ('lzma',
   '/home/guydewinton/.local/bin/envs/full_django_v2/lib/python3.7/lzma.py',
   'PYMODULE'),
  ('stat',
   '/home/guydewinton/.local/bin/envs/full_django_v2/lib/python3.7/stat.py',
   'PYMODULE'),
  ('email.message',
   '/home/guydewinton/.local/bin/envs/full_django_v2/lib/python3.7/email/message.py',
   'PYMODULE'),
  ('email.policy',
   '/home/guydewinton/.local/bin/envs/full_django_v2/lib/python3.7/email/policy.py',
   'PYMODULE'),
  ('email.contentmanager',
   '/home/guydewinton/.local/bin/envs/full_django_v2/lib/python3.7/email/contentmanager.py',
   'PYMODULE'),
  ('email.quoprimime',
   '/home/guydewinton/.local/bin/envs/full_django_v2/lib/python3.7/email/quoprimime.py',
   'PYMODULE'),
  ('email.headerregistry',
   '/home/guydewinton/.local/bin/envs/full_django_v2/lib/python3.7/email/headerregistry.py',
   'PYMODULE'),
  ('email._header_value_parser',
   '/home/guydewinton/.local/bin/envs/full_django_v2/lib/python3.7/email/_header_value_parser.py',
   'PYMODULE'),
  ('urllib',
   '/home/guydewinton/.local/bin/envs/full_django_v2/lib/python3.7/urllib/__init__.py',
   'PYMODULE'),
  ('email.iterators',
   '/home/guydewinton/.local/bin/envs/full_django_v2/lib/python3.7/email/iterators.py',
   'PYMODULE'),
  ('email.generator',
   '/home/guydewinton/.local/bin/envs/full_django_v2/lib/python3.7/email/generator.py',
   'PYMODULE'),
  ('random',
   '/home/guydewinton/.local/bin/envs/full_django_v2/lib/python3.7/random.py',
   'PYMODULE'),
  ('bisect',
   '/home/guydewinton/.local/bin/envs/full_django_v2/lib/python3.7/bisect.py',
   'PYMODULE'),
  ('hashlib',
   '/home/guydewinton/.local/bin/envs/full_django_v2/lib/python3.7/hashlib.py',
   'PYMODULE'),
  ('email._encoded_words',
   '/home/guydewinton/.local/bin/envs/full_django_v2/lib/python3.7/email/_encoded_words.py',
   'PYMODULE'),
  ('email.charset',
   '/home/guydewinton/.local/bin/envs/full_django_v2/lib/python3.7/email/charset.py',
   'PYMODULE'),
  ('email.encoders',
   '/home/guydewinton/.local/bin/envs/full_django_v2/lib/python3.7/email/encoders.py',
   'PYMODULE'),
  ('email.base64mime',
   '/home/guydewinton/.local/bin/envs/full_django_v2/lib/python3.7/email/base64mime.py',
   'PYMODULE'),
  ('email._policybase',
   '/home/guydewinton/.local/bin/envs/full_django_v2/lib/python3.7/email/_policybase.py',
   'PYMODULE'),
  ('email.header',
   '/home/guydewinton/.local/bin/envs/full_django_v2/lib/python3.7/email/header.py',
   'PYMODULE'),
  ('email.errors',
   '/home/guydewinton/.local/bin/envs/full_django_v2/lib/python3.7/email/errors.py',
   'PYMODULE'),
  ('email.utils',
   '/home/guydewinton/.local/bin/envs/full_django_v2/lib/python3.7/email/utils.py',
   'PYMODULE'),
  ('email._parseaddr',
   '/home/guydewinton/.local/bin/envs/full_django_v2/lib/python3.7/email/_parseaddr.py',
   'PYMODULE'),
  ('email',
   '/home/guydewinton/.local/bin/envs/full_django_v2/lib/python3.7/email/__init__.py',
   'PYMODULE'),
  ('email.parser',
   '/home/guydewinton/.local/bin/envs/full_django_v2/lib/python3.7/email/parser.py',
   'PYMODULE'),
  ('email.feedparser',
   '/home/guydewinton/.local/bin/envs/full_django_v2/lib/python3.7/email/feedparser.py',
   'PYMODULE'),
  ('uu',
   '/home/guydewinton/.local/bin/envs/full_django_v2/lib/python3.7/uu.py',
   'PYMODULE'),
  ('optparse',
   '/home/guydewinton/.local/bin/envs/full_django_v2/lib/python3.7/optparse.py',
   'PYMODULE'),
  ('http.server',
   '/home/guydewinton/.local/bin/envs/full_django_v2/lib/python3.7/http/server.py',
   'PYMODULE'),
  ('http',
   '/home/guydewinton/.local/bin/envs/full_django_v2/lib/python3.7/http/__init__.py',
   'PYMODULE'),
  ('socketserver',
   '/home/guydewinton/.local/bin/envs/full_django_v2/lib/python3.7/socketserver.py',
   'PYMODULE'),
  ('posixpath',
   '/home/guydewinton/.local/bin/envs/full_django_v2/lib/python3.7/posixpath.py',
   'PYMODULE'),
  ('genericpath',
   '/home/guydewinton/.local/bin/envs/full_django_v2/lib/python3.7/genericpath.py',
   'PYMODULE'),
  ('mimetypes',
   '/home/guydewinton/.local/bin/envs/full_django_v2/lib/python3.7/mimetypes.py',
   'PYMODULE'),
  ('http.client',
   '/home/guydewinton/.local/bin/envs/full_django_v2/lib/python3.7/http/client.py',
   'PYMODULE'),
  ('ssl',
   '/home/guydewinton/.local/bin/envs/full_django_v2/lib/python3.7/ssl.py',
   'PYMODULE'),
  ('html',
   '/home/guydewinton/.local/bin/envs/full_django_v2/lib/python3.7/html/__init__.py',
   'PYMODULE'),
  ('html.entities',
   '/home/guydewinton/.local/bin/envs/full_django_v2/lib/python3.7/html/entities.py',
   'PYMODULE'),
  ('pydoc_data.topics',
   '/home/guydewinton/.local/bin/envs/full_django_v2/lib/python3.7/pydoc_data/topics.py',
   'PYMODULE'),
  ('pydoc_data',
   '/home/guydewinton/.local/bin/envs/full_django_v2/lib/python3.7/pydoc_data/__init__.py',
   'PYMODULE'),
  ('tty',
   '/home/guydewinton/.local/bin/envs/full_django_v2/lib/python3.7/tty.py',
   'PYMODULE'),
  ('subprocess',
   '/home/guydewinton/.local/bin/envs/full_django_v2/lib/python3.7/subprocess.py',
   'PYMODULE'),
  ('tempfile',
   '/home/guydewinton/.local/bin/envs/full_django_v2/lib/python3.7/tempfile.py',
   'PYMODULE'),
  ('urllib.parse',
   '/home/guydewinton/.local/bin/envs/full_django_v2/lib/python3.7/urllib/parse.py',
   'PYMODULE'),
  ('sysconfig',
   '/home/guydewinton/.local/bin/envs/full_django_v2/lib/python3.7/sysconfig.py',
   'PYMODULE'),
  ('_sysconfigdata_m_linux_x86_64-linux-gnu',
   '/home/guydewinton/.local/bin/envs/full_django_v2/lib/python3.7/_sysconfigdata_m_linux_x86_64-linux-gnu.py',
   'PYMODULE'),
  ('_osx_support',
   '/home/guydewinton/.local/bin/envs/full_django_v2/lib/python3.7/_osx_support.py',
   'PYMODULE'),
  ('distutils.log',
   '/home/guydewinton/.local/bin/envs/full_django_v2/lib/python3.7/distutils/log.py',
   'PYMODULE'),
  ('distutils',
   '/home/guydewinton/.local/bin/envs/full_django_v2/lib/python3.7/distutils/__init__.py',
   'PYMODULE'),
  ('platform',
   '/home/guydewinton/.local/bin/envs/full_django_v2/lib/python3.7/platform.py',
   'PYMODULE'),
  ('plistlib',
   '/home/guydewinton/.local/bin/envs/full_django_v2/lib/python3.7/plistlib.py',
   'PYMODULE'),
  ('xml.parsers.expat',
   '/home/guydewinton/.local/bin/envs/full_django_v2/lib/python3.7/xml/parsers/expat.py',
   'PYMODULE'),
  ('xml.parsers',
   '/home/guydewinton/.local/bin/envs/full_django_v2/lib/python3.7/xml/parsers/__init__.py',
   'PYMODULE'),
  ('xml',
   '/home/guydewinton/.local/bin/envs/full_django_v2/lib/python3.7/xml/__init__.py',
   'PYMODULE'),
  ('xml.sax.expatreader',
   '/home/guydewinton/.local/bin/envs/full_django_v2/lib/python3.7/xml/sax/expatreader.py',
   'PYMODULE'),
  ('xml.sax.saxutils',
   '/home/guydewinton/.local/bin/envs/full_django_v2/lib/python3.7/xml/sax/saxutils.py',
   'PYMODULE'),
  ('urllib.request',
   '/home/guydewinton/.local/bin/envs/full_django_v2/lib/python3.7/urllib/request.py',
   'PYMODULE'),
  ('nturl2path',
   '/home/guydewinton/.local/bin/envs/full_django_v2/lib/python3.7/nturl2path.py',
   'PYMODULE'),
  ('ftplib',
   '/home/guydewinton/.local/bin/envs/full_django_v2/lib/python3.7/ftplib.py',
   'PYMODULE'),
  ('netrc',
   '/home/guydewinton/.local/bin/envs/full_django_v2/lib/python3.7/netrc.py',
   'PYMODULE'),
  ('http.cookiejar',
   '/home/guydewinton/.local/bin/envs/full_django_v2/lib/python3.7/http/cookiejar.py',
   'PYMODULE'),
  ('urllib.response',
   '/home/guydewinton/.local/bin/envs/full_django_v2/lib/python3.7/urllib/response.py',
   'PYMODULE'),
  ('urllib.error',
   '/home/guydewinton/.local/bin/envs/full_django_v2/lib/python3.7/urllib/error.py',
   'PYMODULE'),
  ('xml.sax',
   '/home/guydewinton/.local/bin/envs/full_django_v2/lib/python3.7/xml/sax/__init__.py',
   'PYMODULE'),
  ('xml.sax.handler',
   '/home/guydewinton/.local/bin/envs/full_django_v2/lib/python3.7/xml/sax/handler.py',
   'PYMODULE'),
  ('xml.sax._exceptions',
   '/home/guydewinton/.local/bin/envs/full_django_v2/lib/python3.7/xml/sax/_exceptions.py',
   'PYMODULE'),
  ('xml.sax.xmlreader',
   '/home/guydewinton/.local/bin/envs/full_django_v2/lib/python3.7/xml/sax/xmlreader.py',
   'PYMODULE'),
  ('pkgutil',
   '/home/guydewinton/.local/bin/envs/full_django_v2/lib/python3.7/pkgutil.py',
   'PYMODULE'),
  ('importlib',
   '/home/guydewinton/.local/bin/envs/full_django_v2/lib/python3.7/importlib/__init__.py',
   'PYMODULE'),
  ('importlib.abc',
   '/home/guydewinton/.local/bin/envs/full_django_v2/lib/python3.7/importlib/abc.py',
   'PYMODULE'),
  ('importlib.util',
   '/home/guydewinton/.local/bin/envs/full_django_v2/lib/python3.7/importlib/util.py',
   'PYMODULE'),
  ('importlib.machinery',
   '/home/guydewinton/.local/bin/envs/full_django_v2/lib/python3.7/importlib/machinery.py',
   'PYMODULE'),
  ('importlib._bootstrap_external',
   '/home/guydewinton/.local/bin/envs/full_django_v2/lib/python3.7/importlib/_bootstrap_external.py',
   'PYMODULE'),
  ('importlib._bootstrap',
   '/home/guydewinton/.local/bin/envs/full_django_v2/lib/python3.7/importlib/_bootstrap.py',
   'PYMODULE'),
  ('runpy',
   '/home/guydewinton/.local/bin/envs/full_django_v2/lib/python3.7/runpy.py',
   'PYMODULE'),
  ('shlex',
   '/home/guydewinton/.local/bin/envs/full_django_v2/lib/python3.7/shlex.py',
   'PYMODULE'),
  ('glob',
   '/home/guydewinton/.local/bin/envs/full_django_v2/lib/python3.7/glob.py',
   'PYMODULE'),
  ('code',
   '/home/guydewinton/.local/bin/envs/full_django_v2/lib/python3.7/code.py',
   'PYMODULE'),
  ('codeop',
   '/home/guydewinton/.local/bin/envs/full_django_v2/lib/python3.7/codeop.py',
   'PYMODULE'),
  ('dis',
   '/home/guydewinton/.local/bin/envs/full_django_v2/lib/python3.7/dis.py',
   'PYMODULE'),
  ('opcode',
   '/home/guydewinton/.local/bin/envs/full_django_v2/lib/python3.7/opcode.py',
   'PYMODULE'),
  ('bdb',
   '/home/guydewinton/.local/bin/envs/full_django_v2/lib/python3.7/bdb.py',
   'PYMODULE'),
  ('cmd',
   '/home/guydewinton/.local/bin/envs/full_django_v2/lib/python3.7/cmd.py',
   'PYMODULE'),
  ('inspect',
   '/home/guydewinton/.local/bin/envs/full_django_v2/lib/python3.7/inspect.py',
   'PYMODULE'),
  ('ast',
   '/home/guydewinton/.local/bin/envs/full_django_v2/lib/python3.7/ast.py',
   'PYMODULE'),
  ('difflib',
   '/home/guydewinton/.local/bin/envs/full_django_v2/lib/python3.7/difflib.py',
   'PYMODULE'),
  ('__future__',
   '/home/guydewinton/.local/bin/envs/full_django_v2/lib/python3.7/__future__.py',
   'PYMODULE'),
  ('_compat_pickle',
   '/home/guydewinton/.local/bin/envs/full_django_v2/lib/python3.7/_compat_pickle.py',
   'PYMODULE'),
  ('fnmatch',
   '/home/guydewinton/.local/bin/envs/full_django_v2/lib/python3.7/fnmatch.py',
   'PYMODULE'),
  ('getpass',
   '/home/guydewinton/.local/bin/envs/full_django_v2/lib/python3.7/getpass.py',
   'PYMODULE'),
  ('os',
   '/home/guydewinton/.local/bin/envs/full_django_v2/lib/python3.7/os.py',
   'PYMODULE'),
  ('ntpath',
   '/home/guydewinton/.local/bin/envs/full_django_v2/lib/python3.7/ntpath.py',
   'PYMODULE')])
